EESchema Schematic File Version 2
LIBS:lm399
LIBS:sensors
LIBS:stm32
LIBS:references
LIBS:onsemi
LIBS:maxim
LIBS:ac-dc
LIBS:analog_devices
LIBS:power
LIBS:device
LIBS:transistors
LIBS:conn
LIBS:linear
LIBS:regul
LIBS:adc-dac
LIBS:microcontrollers
LIBS:microchip
LIBS:analog_switches
LIBS:motorola
LIBS:texas
LIBS:audio
LIBS:interface
LIBS:philips
LIBS:cypress
LIBS:siliconi
LIBS:opto
LIBS:atmel
LIBS:contrib
LIBS:transf
LIBS:rfcom
LIBS:current source v0,2-cache
EELAYER 25 0
EELAYER END
$Descr A4 11693 8268
encoding utf-8
Sheet 1 2
Title ""
Date ""
Rev ""
Comp ""
Comment1 ""
Comment2 ""
Comment3 ""
Comment4 ""
$EndDescr
$Comp
L LM399 ZR1
U 1 1 5A0D5188
P 3250 1250
F 0 "ZR1" H 3250 900 60  0000 C CNN
F 1 "LM399" H 3250 1750 60  0000 C CNN
F 2 "TO_SOT_Packages_THT:TO-46-4" H 3250 900 60  0001 C CNN
F 3 "" H 3250 900 60  0001 C CNN
	1    3250 1250
	-1   0    0    -1  
$EndComp
$Comp
L BARREL_JACK CON1
U 1 1 5A0D5CEB
P 950 1050
F 0 "CON1" H 950 1300 50  0000 C CNN
F 1 "BARREL_JACK" H 950 850 50  0000 C CNN
F 2 "Connect:JACK_ALIM" H 950 1050 50  0001 C CNN
F 3 "" H 950 1050 50  0000 C CNN
	1    950  1050
	1    0    0    -1  
$EndComp
$Comp
L R_Small R4
U 1 1 5A0D834D
P 4200 850
F 0 "R4" V 4126 914 50  0000 L CNN
F 1 "5k" V 4057 836 50  0000 L CNN
F 2 "" H 4200 850 50  0000 C CNN
F 3 "" H 4200 850 50  0000 C CNN
	1    4200 850 
	0    -1   -1   0   
$EndComp
$Comp
L R_Small R11
U 1 1 5A0D83BE
P 4200 1350
F 0 "R11" V 4250 1100 50  0000 L CNN
F 1 "8.8k" V 4350 1100 50  0000 L CNN
F 2 "" H 4200 1350 50  0000 C CNN
F 3 "" H 4200 1350 50  0000 C CNN
	1    4200 1350
	0    1    1    0   
$EndComp
$Comp
L R_Small R10
U 1 1 5A0D8429
P 3550 1350
F 0 "R10" H 3500 1050 50  0000 L CNN
F 1 "19k" H 3450 1150 50  0000 L CNN
F 2 "" H 3550 1350 50  0000 C CNN
F 3 "" H 3550 1350 50  0000 C CNN
	1    3550 1350
	-1   0    0    1   
$EndComp
$Comp
L R_Small R5
U 1 1 5A0D88E4
P 3400 900
F 0 "R5" H 3430 920 50  0000 L CNN
F 1 "200k" H 3430 860 50  0000 L CNN
F 2 "" H 3400 900 50  0000 C CNN
F 3 "" H 3400 900 50  0000 C CNN
	1    3400 900 
	1    0    0    -1  
$EndComp
$Comp
L CP_Small C2
U 1 1 5A0D8A95
P 2150 1250
F 0 "C2" H 1900 1200 50  0000 L CNN
F 1 "100u" H 1650 1200 50  0000 L CNN
F 2 "" H 2150 1250 50  0000 C CNN
F 3 "" H 2150 1250 50  0000 C CNN
	1    2150 1250
	1    0    0    -1  
$EndComp
$Comp
L C_Small C1
U 1 1 5A0D8AE2
P 2500 1150
F 0 "C1" H 2550 1250 50  0000 L CNN
F 1 "10u" H 2550 1050 50  0000 L CNN
F 2 "" H 2500 1150 50  0000 C CNN
F 3 "" H 2500 1150 50  0000 C CNN
	1    2500 1150
	1    0    0    -1  
$EndComp
$Comp
L TEST_1P W3
U 1 1 5A0D91BB
P 3400 1650
F 0 "W3" H 3400 1920 50  0000 C CNN
F 1 "TEST_1P" H 3400 1850 50  0000 C CNN
F 2 "" H 3600 1650 50  0000 C CNN
F 3 "" H 3600 1650 50  0000 C CNN
	1    3400 1650
	-1   0    0    1   
$EndComp
$Comp
L R_Small R6
U 1 1 5A0DA35E
P 4450 1100
F 0 "R6" V 4550 1050 50  0000 L CNN
F 1 "4k" V 4350 1100 50  0000 L CNN
F 2 "" H 4450 1100 50  0000 C CNN
F 3 "" H 4450 1100 50  0000 C CNN
	1    4450 1100
	0    -1   -1   0   
$EndComp
$Comp
L R_Small R9
U 1 1 5A0DA50F
P 5650 1100
F 0 "R9" H 5680 1120 50  0000 L CNN
F 1 "1k" H 5680 1060 50  0000 L CNN
F 2 "" H 5650 1100 50  0000 C CNN
F 3 "" H 5650 1100 50  0000 C CNN
	1    5650 1100
	-1   0    0    -1  
$EndComp
$Comp
L R_Small R7
U 1 1 5A0DACBA
P 4850 1100
F 0 "R7" H 4880 1120 50  0000 L CNN
F 1 "4k" H 4880 1060 50  0000 L CNN
F 2 "" H 4850 1100 50  0000 C CNN
F 3 "" H 4850 1100 50  0000 C CNN
	1    4850 1100
	-1   0    0    -1  
$EndComp
$Comp
L Switch_SPDT_x2 SW2
U 1 1 5A10380D
P 5650 1600
F 0 "SW2" H 5600 1750 50  0000 C CNN
F 1 "Switch_SPDT_x2" H 5400 1450 50  0000 C CNN
F 2 "" H 5650 1600 50  0000 C CNN
F 3 "" H 5650 1600 50  0000 C CNN
	1    5650 1600
	0    -1   1    0   
$EndComp
$Comp
L Switch_SPDT_x2 SW1
U 2 1 5A10387C
P 5250 1600
F 0 "SW1" H 5050 1750 50  0000 C CNN
F 1 "Switch_SPDT_x2" H 5000 1450 50  0001 C CNN
F 2 "" H 5250 1600 50  0000 C CNN
F 3 "" H 5250 1600 50  0000 C CNN
	2    5250 1600
	0    1    1    0   
$EndComp
$Comp
L Switch_SPDT_x2 SW1
U 1 1 5A1038CD
P 4850 1600
F 0 "SW1" H 4650 1850 50  0000 C CNN
F 1 "Switch_SPDT_x2" H 4600 1750 50  0000 C CNN
F 2 "" H 4850 1600 50  0000 C CNN
F 3 "" H 4850 1600 50  0000 C CNN
	1    4850 1600
	0    -1   1    0   
$EndComp
$Comp
L R_Small R8
U 1 1 5A103F7F
P 5250 1100
F 0 "R8" H 5280 1120 50  0000 L CNN
F 1 "1k" H 5280 1060 50  0000 L CNN
F 2 "" H 5250 1100 50  0000 C CNN
F 3 "" H 5250 1100 50  0000 C CNN
	1    5250 1100
	-1   0    0    -1  
$EndComp
$Comp
L R_Small R12
U 1 1 5A104C45
P 6850 1900
F 0 "R12" H 6880 1920 50  0000 L CNN
F 1 "1k" H 6880 1860 50  0000 L CNN
F 2 "" H 6850 1900 50  0000 C CNN
F 3 "" H 6850 1900 50  0000 C CNN
	1    6850 1900
	-1   0    0    -1  
$EndComp
$Comp
L Q_NMOS_DGS Q2
U 1 1 5A104D4A
P 6750 1100
F 0 "Q2" H 6450 1000 50  0000 R CNN
F 1 "Q_NMOS_DGS" H 6750 900 50  0000 R CNN
F 2 "" H 6950 1200 50  0000 C CNN
F 3 "" H 6750 1100 50  0000 C CNN
	1    6750 1100
	1    0    0    -1  
$EndComp
$Comp
L TEST W2
U 1 1 5A105092
P 6850 1550
F 0 "W2" H 6850 1400 50  0000 C CNN
F 1 "TEST" H 6850 1480 50  0000 C CNN
F 2 "" H 6850 1550 50  0000 C CNN
F 3 "" H 6850 1550 50  0000 C CNN
	1    6850 1550
	0    1    1    0   
$EndComp
$Comp
L POT RV2
U 1 1 5A105559
P 6600 1900
F 0 "RV2" H 6600 1820 50  0000 C CNN
F 1 "POT" H 6600 1900 50  0000 C CNN
F 2 "" H 6600 1900 50  0000 C CNN
F 3 "" H 6600 1900 50  0000 C CNN
	1    6600 1900
	0    -1   -1   0   
$EndComp
$Comp
L POT RV1
U 1 1 5A0D86DD
P 3700 1500
F 0 "RV1" H 3700 1420 50  0000 C CNN
F 1 "3k" H 3700 1500 50  0000 C CNN
F 2 "" H 3700 1500 50  0000 C CNN
F 3 "" H 3700 1500 50  0000 C CNN
	1    3700 1500
	-1   0    0    1   
$EndComp
Text Notes 3400 700  0    60   ~ 0
10V reference
Text Notes 6100 700  0    60   ~ 0
current source\n
$Comp
L Switch_SPDT_x2 SW2
U 2 1 5A1095EB
P 5650 1600
F 0 "SW2" H 5350 1750 50  0000 C CNN
F 1 "Switch_SPDT_x2" H 5400 1450 50  0000 C CNN
F 2 "" H 5650 1600 50  0000 C CNN
F 3 "" H 5650 1600 50  0000 C CNN
	2    5650 1600
	0    -1   1    0   
$EndComp
$Comp
L LTC2057_MSOP10 U1
U 1 1 5A1068EC
P 4000 1100
F 0 "U1" H 4000 1350 50  0000 L CNN
F 1 "LTC2057_MSOP10" H 4000 1250 50  0001 L CNN
F 2 "" H 4050 1300 50  0000 C CNN
F 3 "" H 4000 1350 50  0000 C CNN
	1    4000 1100
	1    0    0    -1  
$EndComp
$Comp
L LTC2057_MSOP10 U2
U 1 1 5A10693D
P 6200 1100
F 0 "U2" H 6200 1350 50  0000 L CNN
F 1 "LTC2057_MSOP10" H 6150 1250 50  0000 L CNN
F 2 "" H 6250 1300 50  0000 C CNN
F 3 "" H 6200 1350 50  0000 C CNN
	1    6200 1100
	1    0    0    -1  
$EndComp
Text Notes 4550 700  0    60   ~ 0
Levis-Michelson divider
$Comp
L F_Small F1
U 1 1 5A10C753
P 1500 800
F 0 "F1" H 1460 860 50  0000 L CNN
F 1 "0.5A" H 1380 740 50  0000 L CNN
F 2 "" H 1500 800 50  0000 C CNN
F 3 "" H 1500 800 50  0000 C CNN
	1    1500 800 
	1    0    0    -1  
$EndComp
$Comp
L D_Schottky_Small D1
U 1 1 5A10CB9B
P 1750 950
F 0 "D1" V 1850 850 50  0000 L CNN
F 1 "D_Schottky_Small" H 1470 870 50  0001 L CNN
F 2 "" V 1750 950 50  0000 C CNN
F 3 "" V 1750 950 50  0000 C CNN
	1    1750 950 
	0    -1   1    0   
$EndComp
$Comp
L TEST W1
U 1 1 5A10D889
P 1350 1000
F 0 "W1" H 1350 850 50  0000 C CNN
F 1 "TEST" H 1350 930 50  0000 C CNN
F 2 "" H 1350 1000 50  0000 C CNN
F 3 "" H 1350 1000 50  0000 C CNN
	1    1350 1000
	0    -1   1    0   
$EndComp
$Comp
L R_Small R3
U 1 1 5A164407
P 2000 1100
F 0 "R3" V 2100 1000 50  0000 L CNN
F 1 "10k" V 1900 1000 50  0000 L CNN
F 2 "" H 2000 1100 50  0000 C CNN
F 3 "" H 2000 1100 50  0000 C CNN
	1    2000 1100
	0    1    1    0   
$EndComp
$Comp
L TIP120 Q1
U 1 1 5A164A46
P 2150 900
F 0 "Q1" V 2100 700 50  0000 L CNN
F 1 "TIP120" V 2450 750 50  0000 L CNN
F 2 "TO-220" V 2500 300 50  0001 L CIN
F 3 "" H 2150 900 50  0000 L CNN
	1    2150 900 
	0    -1   -1   0   
$EndComp
$Comp
L R_Small R2
U 1 1 5A166293
P 1650 1050
F 0 "R2" H 1750 950 50  0000 L CNN
F 1 "100k" H 1700 850 50  0000 L CNN
F 2 "" H 1650 1050 50  0000 C CNN
F 3 "" H 1650 1050 50  0000 C CNN
F 4 "reduce value if THT is used" H 1650 1050 60  0001 C CNN "note"
	1    1650 1050
	-1   0    0    -1  
$EndComp
$Comp
L R_Small R1
U 1 1 5A166B86
P 2400 950
F 0 "R1" H 2500 850 50  0000 L CNN
F 1 "100k" H 2450 750 50  0000 L CNN
F 2 "" H 2400 950 50  0000 C CNN
F 3 "" H 2400 950 50  0000 C CNN
F 4 "reduce value if THT is used" H 2400 950 60  0001 C CNN "note"
	1    2400 950 
	-1   0    0    -1  
$EndComp
$Comp
L LTC2057_MSOP10 U?
U 1 1 5A1914A2
P 3550 3100
F 0 "U?" H 3550 3350 50  0000 L CNN
F 1 "LTC2057_MSOP10" H 3500 3250 50  0000 L CNN
F 2 "" H 3600 3300 50  0000 C CNN
F 3 "" H 3550 3350 50  0000 C CNN
	1    3550 3100
	1    0    0    -1  
$EndComp
$Comp
L BSS138 Q?
U 1 1 5A191936
P 4150 3050
F 0 "Q?" H 4350 3125 50  0000 L CNN
F 1 "BSS138" H 4350 3050 50  0000 L CNN
F 2 "SOT-23" H 4350 2975 50  0000 L CIN
F 3 "" H 4150 3050 50  0000 L CNN
	1    4150 3050
	1    0    0    -1  
$EndComp
$Comp
L R_Small R?
U 1 1 5A191BDE
P 4250 3500
F 0 "R?" H 4280 3520 50  0000 L CNN
F 1 "1k" H 4280 3460 50  0000 L CNN
F 2 "" H 4250 3500 50  0000 C CNN
F 3 "" H 4250 3500 50  0000 C CNN
	1    4250 3500
	-1   0    0    -1  
$EndComp
$Comp
L TEST W?
U 1 1 5A191BE4
P 4250 2550
F 0 "W?" H 4250 2400 50  0000 C CNN
F 1 "TEST" H 4250 2480 50  0000 C CNN
F 2 "" H 4250 2550 50  0000 C CNN
F 3 "" H 4250 2550 50  0000 C CNN
	1    4250 2550
	0    1    1    0   
$EndComp
$Comp
L POT RV?
U 1 1 5A191BEA
P 4000 3500
F 0 "RV?" H 4000 3420 50  0000 C CNN
F 1 "POT" H 4000 3500 50  0000 C CNN
F 2 "" H 4000 3500 50  0000 C CNN
F 3 "" H 4000 3500 50  0000 C CNN
	1    4000 3500
	0    -1   -1   0   
$EndComp
$Comp
L LM399 ZR?
U 1 1 5A192A9B
P 800 3300
F 0 "ZR?" H 800 2950 60  0000 C CNN
F 1 "LM399" H 800 3700 60  0000 C CNN
F 2 "TO_SOT_Packages_THT:TO-46-4" H 800 2950 60  0001 C CNN
F 3 "" H 800 2950 60  0001 C CNN
	1    800  3300
	-1   0    0    -1  
$EndComp
$Comp
L R_Small R?
U 1 1 5A193C33
P 950 2500
F 0 "R?" H 980 2520 50  0000 L CNN
F 1 "200k" H 980 2460 50  0000 L CNN
F 2 "" H 950 2500 50  0000 C CNN
F 3 "" H 950 2500 50  0000 C CNN
	1    950  2500
	1    0    0    -1  
$EndComp
$Comp
L LTC2057_MSOP10 U?
U 1 1 5A194322
P 2200 3300
F 0 "U?" H 2350 3450 50  0000 L CNN
F 1 "LTC2057_MSOP10" H 2200 3450 50  0001 L CNN
F 2 "" H 2250 3500 50  0000 C CNN
F 3 "" H 2200 3550 50  0000 C CNN
	1    2200 3300
	-1   0    0    -1  
$EndComp
$Comp
L R_Small R?
U 1 1 5A194A6D
P 2850 3550
F 0 "R?" V 2700 3550 50  0000 L CNN
F 1 "1k" V 2950 3550 50  0000 L CNN
F 2 "" H 2850 3550 50  0000 C CNN
F 3 "" H 2850 3550 50  0000 C CNN
	1    2850 3550
	0    -1   -1   0   
$EndComp
$Comp
L R_Small R?
U 1 1 5A194CDB
P 2550 3550
F 0 "R?" V 2400 3550 50  0000 L CNN
F 1 "6k" V 2650 3550 50  0000 L CNN
F 2 "" H 2550 3550 50  0000 C CNN
F 3 "" H 2550 3550 50  0000 C CNN
	1    2550 3550
	0    -1   -1   0   
$EndComp
$Comp
L R_Small R?
U 1 1 5A195889
P 1750 3150
F 0 "R?" H 1780 3170 50  0000 L CNN
F 1 "4k" H 1780 3110 50  0000 L CNN
F 2 "" H 1750 3150 50  0000 C CNN
F 3 "" H 1750 3150 50  0000 C CNN
	1    1750 3150
	-1   0    0    -1  
$EndComp
$Comp
L LM399 ZR?
U 1 1 5A246079
P 7450 1350
F 0 "ZR?" H 7500 1700 60  0000 C CNN
F 1 "LM399" H 7450 1000 60  0000 C CNN
F 2 "TO_SOT_Packages_THT:TO-46-4" H 7450 1000 60  0001 C CNN
F 3 "" H 7450 1000 60  0001 C CNN
	1    7450 1350
	-1   0    0    -1  
$EndComp
$Comp
L R_Small R?
U 1 1 5A246C36
P 7600 900
F 0 "R?" H 7650 900 50  0000 L CNN
F 1 "200k" H 7650 1000 50  0000 L CNN
F 2 "" H 7600 900 50  0000 C CNN
F 3 "" H 7600 900 50  0000 C CNN
	1    7600 900 
	-1   0    0    -1  
$EndComp
$Comp
L R_Small R?
U 1 1 5A246CF4
P 7750 1600
F 0 "R?" H 7600 1600 50  0000 L CNN
F 1 "10k" H 7600 1700 50  0000 L CNN
F 2 "" H 7750 1600 50  0000 C CNN
F 3 "" H 7750 1600 50  0000 C CNN
	1    7750 1600
	-1   0    0    1   
$EndComp
$Comp
L R_Small R?
U 1 1 5A246DF1
P 8250 1450
F 0 "R?" V 8150 1400 50  0000 L CNN
F 1 "100" V 8150 1250 50  0000 L CNN
F 2 "" H 8250 1450 50  0000 C CNN
F 3 "" H 8250 1450 50  0000 C CNN
	1    8250 1450
	0    1    1    0   
$EndComp
$Comp
L R_Small R?
U 1 1 5A246ED5
P 8250 850
F 0 "R?" V 8350 800 50  0000 L CNN
F 1 "15" V 8350 900 50  0000 L CNN
F 2 "" H 8250 850 50  0000 C CNN
F 3 "" H 8250 850 50  0000 C CNN
	1    8250 850 
	0    -1   1    0   
$EndComp
$Comp
L LTC2057_MSOP10 U?
U 1 1 5A247A20
P 8050 1150
F 0 "U?" H 8000 1150 50  0000 L CNN
F 1 "LTC2057_MSOP10" H 8050 1300 50  0001 L CNN
F 2 "" H 8100 1350 50  0000 C CNN
F 3 "" H 8050 1400 50  0000 C CNN
	1    8050 1150
	1    0    0    -1  
$EndComp
$Comp
L R_Small R?
U 1 1 5A24B897
P 10500 1550
F 0 "R?" H 10550 1600 50  0000 L CNN
F 1 "100R" H 10550 1500 50  0000 L CNN
F 2 "" H 10500 1550 50  0000 C CNN
F 3 "" H 10500 1550 50  0000 C CNN
	1    10500 1550
	1    0    0    -1  
$EndComp
$Comp
L LTC2057_MSOP10 U?
U 1 1 5A24BDE5
P 9950 1250
F 0 "U?" H 10100 1400 50  0000 L CNN
F 1 "LTC2057_MSOP10" H 9950 1400 50  0001 L CNN
F 2 "" H 10000 1450 50  0000 C CNN
F 3 "" H 9950 1500 50  0000 C CNN
	1    9950 1250
	-1   0    0    -1  
$EndComp
$Comp
L TEST W?
U 1 1 5A24D1DD
P 10500 1050
F 0 "W?" V 10500 1150 50  0000 C CNN
F 1 "TEST" V 10500 900 50  0000 C CNN
F 2 "" H 10500 1050 50  0000 C CNN
F 3 "" H 10500 1050 50  0000 C CNN
	1    10500 1050
	0    1    1    0   
$EndComp
$Comp
L LTC2057_MSOP10 U?
U 1 1 5A2536AA
P 9250 1100
F 0 "U?" V 9400 1250 50  0000 L CNN
F 1 "LTC2057_MSOP10" H 9250 1250 50  0001 L CNN
F 2 "" H 9300 1300 50  0000 C CNN
F 3 "" H 9250 1350 50  0000 C CNN
	1    9250 1100
	0    -1   -1   0   
$EndComp
$Comp
L R_Small R?
U 1 1 5A2611D7
P 10350 1700
F 0 "R?" V 10150 1600 50  0000 L CNN
F 1 "100R" V 10250 1600 50  0000 L CNN
F 2 "" H 10350 1700 50  0000 C CNN
F 3 "" H 10350 1700 50  0000 C CNN
	1    10350 1700
	0    1    1    0   
$EndComp
$Comp
L R_Small R?
U 1 1 5A261574
P 9900 1700
F 0 "R?" V 9800 1650 50  0000 L CNN
F 1 "600" V 9800 1500 50  0000 L CNN
F 2 "" H 9900 1700 50  0000 C CNN
F 3 "" H 9900 1700 50  0000 C CNN
	1    9900 1700
	0    1    1    0   
$EndComp
$Sheet
S 8542 1100 214  601 
U 5A24E119
F0 "LMD" 60
F1 "LMD.sch" 60
F2 "In" I T 8600 1100 60 
F3 "GND" I B 8650 1701 60 
F4 "Out" I T 8700 1100 60 
$EndSheet
Wire Wire Line
	3100 1550 3100 1650
Wire Wire Line
	3400 1650 3400 1550
Connection ~ 3400 1650
Wire Wire Line
	3400 1000 3700 1000
Wire Wire Line
	3100 800  3100 1000
Connection ~ 3100 800 
Wire Wire Line
	4300 850  4300 1100
Wire Wire Line
	4300 1100 4300 1350
Wire Wire Line
	4100 850  3700 850 
Wire Wire Line
	3700 850  3700 1000
Connection ~ 4300 1100
Wire Wire Line
	4100 1350 3700 1350
Wire Wire Line
	3700 1350 3700 1200
Wire Wire Line
	3700 1200 3550 1200
Connection ~ 3700 1000
Connection ~ 3700 1200
Connection ~ 3700 1650
Wire Wire Line
	3850 1650 3850 1500
Connection ~ 3850 1650
Wire Wire Line
	3550 1500 3550 1450
Connection ~ 3400 1000
Connection ~ 3400 800 
Wire Wire Line
	3900 1400 3900 1650
Wire Wire Line
	3900 1650 3900 2050
Connection ~ 3900 1650
Wire Wire Line
	4850 1200 4850 1250
Wire Wire Line
	4850 1250 4850 1300
Wire Wire Line
	5650 1200 5650 1300
Wire Wire Line
	5250 1200 5250 1300
Wire Wire Line
	5150 1900 5050 1900
Wire Wire Line
	5050 1900 5050 1250
Wire Wire Line
	5050 1250 4850 1250
Connection ~ 4850 1250
Wire Wire Line
	4600 1000 4850 1000
Wire Wire Line
	4850 1000 5250 1000
Wire Wire Line
	5250 1000 5650 1000
Wire Wire Line
	5650 1000 5900 1000
Connection ~ 5650 1000
Wire Wire Line
	6550 1100 6500 1100
Wire Wire Line
	6850 1300 6850 1350
Wire Wire Line
	6600 1750 6850 1750
Wire Wire Line
	6850 1750 6850 1800
Wire Wire Line
	5900 1650 6750 1650
Wire Wire Line
	6750 1650 6850 1750
Wire Wire Line
	6850 800  6850 900 
Connection ~ 6100 800 
Connection ~ 6850 1750
Wire Wire Line
	3900 2050 4950 2050
Wire Wire Line
	4950 2050 5750 2050
Wire Wire Line
	5750 2050 6100 2050
Wire Wire Line
	6100 2050 6450 2050
Wire Wire Line
	6450 2050 6600 2050
Wire Wire Line
	6600 2050 6850 2050
Wire Wire Line
	6450 1900 6450 2050
Connection ~ 6600 2050
Wire Wire Line
	5900 1200 5900 1650
Wire Wire Line
	4550 1100 4600 1100
Wire Wire Line
	4600 1100 4600 1000
Connection ~ 3900 800 
Wire Wire Line
	6850 2050 6850 2000
Wire Wire Line
	5750 1900 5750 2050
Connection ~ 6450 2050
Wire Wire Line
	4950 1900 4950 2050
Connection ~ 5750 2050
Connection ~ 4950 2050
Connection ~ 4850 1000
Connection ~ 5250 1000
Wire Wire Line
	3550 1200 3550 1250
Wire Wire Line
	6100 1400 6100 2050
Connection ~ 6100 2050
Wire Wire Line
	4300 1100 4350 1100
Wire Notes Line
	4350 550  4350 2100
Wire Notes Line
	5850 550  5850 2100
Wire Notes Line
	6950 550  6950 2100
Connection ~ 5650 1300
Wire Wire Line
	5550 1900 5550 1900
Wire Wire Line
	1250 1050 1250 1150
Wire Wire Line
	1250 1150 1250 1200
Wire Wire Line
	1250 950  1250 800 
Wire Wire Line
	1250 800  1350 800 
Wire Wire Line
	1350 800  1400 800 
Wire Wire Line
	1600 800  1650 800 
Wire Wire Line
	1650 800  1750 800 
Wire Wire Line
	1750 800  1900 800 
Wire Wire Line
	1900 800  1950 800 
Connection ~ 1250 1150
Wire Wire Line
	2150 1100 2100 1100
Wire Wire Line
	1900 800  1900 1100
Connection ~ 1350 800 
Connection ~ 1900 800 
Wire Wire Line
	2150 1100 2150 1150
Wire Wire Line
	1350 1350 2150 1350
Wire Wire Line
	2150 1350 2400 1350
Wire Wire Line
	2400 1350 2500 1350
Wire Wire Line
	1350 1350 1350 1200
Connection ~ 1350 1200
Connection ~ 2150 1100
Wire Wire Line
	1750 850  1750 800 
Connection ~ 1750 800 
Wire Wire Line
	1750 1200 1750 1050
Wire Wire Line
	1250 1200 1350 1200
Wire Wire Line
	1350 1200 1650 1200
Wire Wire Line
	1650 1200 1750 1200
Wire Wire Line
	2350 800  2400 800 
Wire Wire Line
	2400 800  2500 800 
Wire Wire Line
	2500 800  2500 1050
Wire Wire Line
	2500 1350 2500 1250
Connection ~ 2150 1350
Wire Wire Line
	1650 1150 1650 1200
Connection ~ 1650 1200
Wire Wire Line
	1650 950  1650 800 
Connection ~ 1650 800 
Wire Wire Line
	2400 850  2400 800 
Connection ~ 2400 800 
Wire Wire Line
	2400 1050 2400 1350
Connection ~ 2400 1350
Wire Wire Line
	4250 3250 4250 3350
Wire Wire Line
	4250 3350 4250 3400
Wire Wire Line
	3850 3650 3850 3500
Wire Wire Line
	4250 3650 4250 3600
Wire Wire Line
	4250 2750 4250 2850
Wire Wire Line
	650  3650 950  3650
Wire Wire Line
	950  3650 2300 3650
Wire Wire Line
	2300 3650 2950 3650
Wire Wire Line
	2950 3650 3450 3650
Wire Wire Line
	3450 3650 3850 3650
Wire Wire Line
	3850 3650 4000 3650
Wire Wire Line
	4000 3650 4250 3650
Connection ~ 4000 3650
Wire Wire Line
	3450 3650 3450 3400
Connection ~ 3850 3650
Wire Wire Line
	3850 3100 3950 3100
Wire Wire Line
	650  2350 950  2350
Wire Wire Line
	950  2350 2300 2350
Wire Wire Line
	2300 2350 3450 2350
Wire Wire Line
	3450 2350 4250 2350
Wire Wire Line
	3450 2350 3450 2800
Connection ~ 3450 2350
Wire Wire Line
	650  3050 650  2350
Connection ~ 950  2350
Wire Wire Line
	950  2600 950  3000
Wire Wire Line
	950  3000 950  3050
Wire Wire Line
	950  2350 950  2400
Wire Wire Line
	950  3650 950  3600
Connection ~ 3450 3650
Wire Wire Line
	650  3650 650  3600
Connection ~ 950  3650
Wire Wire Line
	2300 3600 2300 3650
Connection ~ 2300 3650
Wire Wire Line
	2300 3000 2300 2350
Connection ~ 2300 2350
Wire Wire Line
	2500 3350 4000 3350
Wire Wire Line
	4000 3350 4250 3350
Connection ~ 4250 3350
Wire Wire Line
	950  3000 1750 3000
Wire Wire Line
	1750 3000 3250 3000
Connection ~ 950  3000
Wire Wire Line
	2650 3550 2700 3550
Wire Wire Line
	2700 3550 2750 3550
Wire Wire Line
	1900 3550 2450 3550
Wire Wire Line
	1750 3300 1900 3300
Wire Wire Line
	1900 3050 1900 3300
Wire Wire Line
	1900 3300 1900 3550
Wire Wire Line
	2700 3550 2700 3400
Wire Wire Line
	2700 3400 2500 3400
Connection ~ 2700 3550
Wire Wire Line
	2950 3550 2950 3650
Connection ~ 2950 3650
Wire Wire Line
	2500 3200 2500 3350
Connection ~ 4000 3350
Connection ~ 1900 3300
Wire Wire Line
	1750 3050 1750 3000
Connection ~ 1750 3000
Wire Wire Line
	1750 3300 1750 3250
Wire Wire Line
	3250 3200 3250 3050
Wire Wire Line
	3250 3050 1900 3050
Wire Wire Line
	7600 1000 7600 1050
Wire Wire Line
	7600 1050 7600 1100
Wire Wire Line
	7600 1050 7700 1050
Wire Wire Line
	7700 1050 7750 1050
Connection ~ 7600 1050
Wire Wire Line
	7300 1100 7300 750 
Wire Wire Line
	7300 750  7600 750 
Wire Wire Line
	7600 750  7950 750 
Wire Wire Line
	7950 750  8950 750 
Wire Wire Line
	8950 750  10050 750 
Wire Wire Line
	7950 750  7950 850 
Wire Wire Line
	7600 800  7600 750 
Connection ~ 7600 750 
Wire Wire Line
	7300 1650 7300 1750
Wire Wire Line
	7950 1750 7950 1450
Wire Wire Line
	7600 1650 7600 1750
Wire Wire Line
	8150 850  7700 850 
Wire Wire Line
	7700 850  7700 1050
Connection ~ 7700 1050
Wire Wire Line
	7750 1250 7750 1450
Wire Wire Line
	7750 1450 7750 1500
Wire Wire Line
	8150 1450 7750 1450
Connection ~ 7750 1450
Wire Wire Line
	10500 1750 10050 1750
Wire Wire Line
	10050 1750 9550 1750
Wire Wire Line
	9550 1750 8650 1750
Wire Wire Line
	8650 1750 7950 1750
Wire Wire Line
	7950 1750 7750 1750
Wire Wire Line
	7750 1750 7600 1750
Wire Wire Line
	7600 1750 7300 1750
Connection ~ 7600 1750
Wire Wire Line
	7750 1700 7750 1750
Connection ~ 7750 1750
Wire Wire Line
	8400 1450 8350 1450
Wire Wire Line
	8400 850  8400 1050
Wire Wire Line
	8400 1050 8400 1150
Wire Wire Line
	8400 1150 8400 1450
Wire Wire Line
	8400 850  8350 850 
Wire Wire Line
	10500 1650 10500 1700
Wire Wire Line
	10500 1700 10500 1750
Connection ~ 7950 1750
Wire Wire Line
	10250 1150 10300 1150
Wire Wire Line
	10300 1150 10300 1400
Wire Wire Line
	10300 1400 10500 1400
Wire Wire Line
	10500 1250 10500 1400
Wire Wire Line
	10500 1400 10500 1450
Connection ~ 10500 1700
Connection ~ 10500 1400
Wire Wire Line
	10050 1550 10050 1750
Connection ~ 10050 1750
Connection ~ 7950 750 
Wire Wire Line
	9550 1200 9550 1750
Connection ~ 9550 1750
Wire Wire Line
	10450 1700 10500 1700
Connection ~ 10200 1700
Wire Wire Line
	10000 1700 10200 1700
Wire Wire Line
	10200 1700 10250 1700
Wire Wire Line
	10200 1700 10200 1400
Wire Wire Line
	10200 1400 10250 1400
Wire Wire Line
	10250 1400 10250 1350
Wire Wire Line
	9650 1250 9600 1250
Wire Wire Line
	9600 1250 9600 1400
Wire Wire Line
	9600 1400 9600 1700
Wire Wire Line
	9600 1700 9800 1700
Wire Wire Line
	8950 750  8950 1200
Wire Wire Line
	8350 1150 8400 1150
Connection ~ 8400 1150
Wire Wire Line
	8600 1100 8600 1050
Wire Wire Line
	8600 1050 8400 1050
Connection ~ 8400 1050
Wire Wire Line
	8650 1700 8650 1750
Connection ~ 8650 1750
Wire Wire Line
	8700 1100 8700 1050
Wire Wire Line
	8700 1050 8900 1050
Wire Wire Line
	8900 1050 8900 1400
Wire Wire Line
	8900 1400 9150 1400
Wire Wire Line
	9250 800  10500 800 
Wire Wire Line
	10500 800  10500 850 
Wire Wire Line
	10050 750  10050 950 
Connection ~ 8950 750 
Text Notes 9750 650  0    60   ~ 0
Sense Amplification
Text Notes 7350 650  0    60   ~ 0
Reference
Text Notes 8550 650  0    60   ~ 0
LMD
Text Notes 9100 650  0    60   ~ 0
Output
Wire Notes Line
	10800 1800 7150 1800
Wire Notes Line
	7150 1800 7150 550 
Wire Notes Line
	7150 550  10800 550 
Wire Notes Line
	10800 550  10800 1800
Wire Notes Line
	9650 1800 9650 550 
Wire Notes Line
	8850 550  8850 1800
Wire Notes Line
	8450 1800 8450 550 
Wire Wire Line
	3100 1650 3400 1650
Wire Wire Line
	3400 1650 3700 1650
Wire Wire Line
	3700 1650 3850 1650
Wire Wire Line
	3850 1650 3900 1650
Wire Wire Line
	3100 800  3400 800 
Wire Wire Line
	3400 800  3900 800 
Wire Wire Line
	3900 800  6100 800 
Wire Wire Line
	6100 800  6850 800 
Wire Notes Line
	6950 2100 2950 2100
Wire Notes Line
	2950 2100 2950 550 
Wire Notes Line
	2950 550  6950 550 
Text Notes 850  650  0    60   ~ 0
Pre-regulator
Wire Notes Line
	2750 1400 550  1400
Wire Notes Line
	550  1400 550  550 
Wire Notes Line
	550  550  2750 550 
Wire Notes Line
	2750 550  2750 1400
Wire Wire Line
	9350 1400 9600 1400
Connection ~ 9600 1400
$EndSCHEMATC
