EESchema Schematic File Version 2
LIBS:power
LIBS:device
LIBS:transistors
LIBS:conn
LIBS:linear
LIBS:regul
LIBS:74xx
LIBS:cmos4000
LIBS:adc-dac
LIBS:memory
LIBS:xilinx
LIBS:microcontrollers
LIBS:dsp
LIBS:microchip
LIBS:analog_switches
LIBS:motorola
LIBS:texas
LIBS:intel
LIBS:audio
LIBS:interface
LIBS:digital-audio
LIBS:philips
LIBS:display
LIBS:cypress
LIBS:siliconi
LIBS:opto
LIBS:atmel
LIBS:contrib
LIBS:valves
LIBS:Levis-Michelson divider-cache
EELAYER 25 0
EELAYER END
$Descr A4 11693 8268
encoding utf-8
Sheet 1 1
Title ""
Date ""
Rev ""
Comp ""
Comment1 ""
Comment2 ""
Comment3 ""
Comment4 ""
$EndDescr
$Comp
L R_Small R4
U 1 1 5A119EBB
P 1000 1400
F 0 "R4" H 1030 1420 50  0000 L CNN
F 1 "10k" H 1030 1360 50  0000 L CNN
F 2 "Resistors_SMD:R_2010_HandSoldering" H 1000 1400 50  0001 C CNN
F 3 "" H 1000 1400 50  0000 C CNN
	1    1000 1400
	1    0    0    -1  
$EndComp
$Comp
L POT RV2
U 1 1 5A119F3B
P 2750 2050
F 0 "RV2" H 2750 1970 50  0000 C CNN
F 1 "10k" H 2750 2050 50  0000 C CNN
F 2 "Potentiometers:Potentiometer_Bourns_3296W_3-8Zoll_Inline_ScrewUp" H 2750 2050 50  0001 C CNN
F 3 "" H 2750 2050 50  0000 C CNN
	1    2750 2050
	0    1    1    0   
$EndComp
$Comp
L POT RV1
U 1 1 5A119FD1
P 1950 2100
F 0 "RV1" H 1950 2020 50  0000 C CNN
F 1 "50k" H 1950 2100 50  0000 C CNN
F 2 "Potentiometers:Potentiometer_Bourns_3296W_3-8Zoll_Inline_ScrewUp" H 1950 2100 50  0001 C CNN
F 3 "" H 1950 2100 50  0000 C CNN
	1    1950 2100
	0    1    1    0   
$EndComp
$Comp
L R_Small R3
U 1 1 5A11A1EB
P 1000 1150
F 0 "R3" H 1030 1170 50  0000 L CNN
F 1 "10k" H 1030 1110 50  0000 L CNN
F 2 "Resistors_SMD:R_2010_HandSoldering" H 1000 1150 50  0001 C CNN
F 3 "" H 1000 1150 50  0000 C CNN
	1    1000 1150
	1    0    0    -1  
$EndComp
$Comp
L R_Small R2
U 1 1 5A11A210
P 1000 900
F 0 "R2" H 1030 920 50  0000 L CNN
F 1 "10k" H 1030 860 50  0000 L CNN
F 2 "Resistors_SMD:R_2010_HandSoldering" H 1000 900 50  0001 C CNN
F 3 "" H 1000 900 50  0000 C CNN
	1    1000 900 
	1    0    0    -1  
$EndComp
$Comp
L R_Small R5
U 1 1 5A11A238
P 1200 900
F 0 "R5" H 1230 920 50  0000 L CNN
F 1 "10k" H 1230 860 50  0000 L CNN
F 2 "Resistors_SMD:R_2010_HandSoldering" H 1200 900 50  0001 C CNN
F 3 "" H 1200 900 50  0000 C CNN
	1    1200 900 
	1    0    0    -1  
$EndComp
$Comp
L R_Small R6
U 1 1 5A11A271
P 1200 1150
F 0 "R6" H 1230 1170 50  0000 L CNN
F 1 "10k" H 1230 1110 50  0000 L CNN
F 2 "Resistors_SMD:R_2010_HandSoldering" H 1200 1150 50  0001 C CNN
F 3 "" H 1200 1150 50  0000 C CNN
	1    1200 1150
	1    0    0    -1  
$EndComp
$Comp
L R_Small R7
U 1 1 5A11A2A1
P 1200 1400
F 0 "R7" H 1230 1420 50  0000 L CNN
F 1 "10k" H 1230 1360 50  0000 L CNN
F 2 "Resistors_SMD:R_2010_HandSoldering" H 1200 1400 50  0001 C CNN
F 3 "" H 1200 1400 50  0000 C CNN
	1    1200 1400
	1    0    0    -1  
$EndComp
$Comp
L R_Small R10
U 1 1 5A11A2F9
P 1400 900
F 0 "R10" H 1430 920 50  0000 L CNN
F 1 "10k" H 1430 860 50  0000 L CNN
F 2 "Resistors_SMD:R_2010_HandSoldering" H 1400 900 50  0001 C CNN
F 3 "" H 1400 900 50  0000 C CNN
	1    1400 900 
	1    0    0    -1  
$EndComp
$Comp
L R_Small R11
U 1 1 5A11A2FF
P 1400 1150
F 0 "R11" H 1430 1170 50  0000 L CNN
F 1 "10k" H 1430 1110 50  0000 L CNN
F 2 "Resistors_SMD:R_2010_HandSoldering" H 1400 1150 50  0001 C CNN
F 3 "" H 1400 1150 50  0000 C CNN
	1    1400 1150
	1    0    0    -1  
$EndComp
$Comp
L R_Small R12
U 1 1 5A11A305
P 1400 1400
F 0 "R12" H 1430 1420 50  0000 L CNN
F 1 "10k" H 1430 1360 50  0000 L CNN
F 2 "Resistors_SMD:R_2010_HandSoldering" H 1400 1400 50  0001 C CNN
F 3 "" H 1400 1400 50  0000 C CNN
	1    1400 1400
	1    0    0    -1  
$EndComp
$Comp
L R_Small R17
U 1 1 5A11A323
P 1600 1150
F 0 "R17" H 1630 1170 50  0000 L CNN
F 1 "10k" H 1630 1110 50  0000 L CNN
F 2 "Resistors_SMD:R_2010_HandSoldering" H 1600 1150 50  0001 C CNN
F 3 "" H 1600 1150 50  0000 C CNN
	1    1600 1150
	1    0    0    -1  
$EndComp
$Comp
L R_Small R9
U 1 1 5A11A374
P 1300 1600
F 0 "R9" H 1330 1620 50  0000 L CNN
F 1 "10k" H 1330 1560 50  0000 L CNN
F 2 "Resistors_SMD:R_2010_HandSoldering" H 1300 1600 50  0001 C CNN
F 3 "" H 1300 1600 50  0000 C CNN
	1    1300 1600
	0    1    1    0   
$EndComp
$Comp
L R_Small R1
U 1 1 5A11A49E
P 950 1800
F 0 "R1" H 980 1820 50  0000 L CNN
F 1 "10k" H 980 1760 50  0000 L CNN
F 2 "Resistors_SMD:R_2010_HandSoldering" H 950 1800 50  0001 C CNN
F 3 "" H 950 1800 50  0000 C CNN
	1    950  1800
	0    1    1    0   
$EndComp
$Comp
L R_Small R8
U 1 1 5A11A4F1
P 1200 1800
F 0 "R8" H 1230 1820 50  0000 L CNN
F 1 "10k" H 1230 1760 50  0000 L CNN
F 2 "Resistors_SMD:R_2010_HandSoldering" H 1200 1800 50  0001 C CNN
F 3 "" H 1200 1800 50  0000 C CNN
	1    1200 1800
	0    1    1    0   
$EndComp
$Comp
L R_Small R13
U 1 1 5A11A537
P 1450 1800
F 0 "R13" H 1480 1820 50  0000 L CNN
F 1 "10k" H 1480 1760 50  0000 L CNN
F 2 "Resistors_SMD:R_2010_HandSoldering" H 1450 1800 50  0001 C CNN
F 3 "" H 1450 1800 50  0000 C CNN
	1    1450 1800
	0    1    1    0   
$EndComp
$Comp
L R_Small R18
U 1 1 5A11A584
P 1700 1800
F 0 "R18" H 1730 1820 50  0000 L CNN
F 1 "10k" H 1730 1760 50  0000 L CNN
F 2 "Resistors_SMD:R_2010_HandSoldering" H 1700 1800 50  0001 C CNN
F 3 "" H 1700 1800 50  0000 C CNN
	1    1700 1800
	0    1    1    0   
$EndComp
Wire Wire Line
	850  1600 1200 1600
Wire Wire Line
	850  1600 850  1800
Wire Wire Line
	1400 1600 1800 1600
Wire Wire Line
	1800 1600 1800 1800
Wire Wire Line
	1600 1800 1550 1800
Wire Wire Line
	1350 1800 1300 1800
Wire Wire Line
	1100 1800 1050 1800
Wire Wire Line
	1000 1500 1000 1600
Connection ~ 1000 1600
Wire Wire Line
	1000 1300 1000 1250
Wire Wire Line
	1000 1050 1000 1000
Wire Wire Line
	1000 800  1200 800 
Wire Wire Line
	1200 1000 1200 1050
Wire Wire Line
	1200 1250 1200 1300
Wire Wire Line
	1200 1500 1400 1500
Wire Wire Line
	1400 1300 1400 1250
Wire Wire Line
	1400 1050 1400 1000
Wire Wire Line
	1400 800  1600 800 
Wire Wire Line
	1600 800  1600 1050
Wire Wire Line
	1600 1250 1600 1600
Connection ~ 1600 1600
$Comp
L R_Small R16
U 1 1 5A11AF43
P 1500 2650
F 0 "R16" H 1530 2670 50  0000 L CNN
F 1 "10k" H 1530 2610 50  0000 L CNN
F 2 "Resistors_SMD:R_2010_HandSoldering" H 1500 2650 50  0001 C CNN
F 3 "" H 1500 2650 50  0000 C CNN
	1    1500 2650
	1    0    0    -1  
$EndComp
$Comp
L R_Small R15
U 1 1 5A11AF49
P 1500 2400
F 0 "R15" H 1530 2420 50  0000 L CNN
F 1 "10k" H 1530 2360 50  0000 L CNN
F 2 "Resistors_SMD:R_2010_HandSoldering" H 1500 2400 50  0001 C CNN
F 3 "" H 1500 2400 50  0000 C CNN
	1    1500 2400
	1    0    0    -1  
$EndComp
$Comp
L R_Small R14
U 1 1 5A11AF4F
P 1500 2150
F 0 "R14" H 1530 2170 50  0000 L CNN
F 1 "10k" H 1530 2110 50  0000 L CNN
F 2 "Resistors_SMD:R_2010_HandSoldering" H 1500 2150 50  0001 C CNN
F 3 "" H 1500 2150 50  0000 C CNN
	1    1500 2150
	1    0    0    -1  
$EndComp
$Comp
L R_Small R19
U 1 1 5A11AF55
P 1700 2150
F 0 "R19" H 1730 2170 50  0000 L CNN
F 1 "10k" H 1730 2110 50  0000 L CNN
F 2 "Resistors_SMD:R_2010_HandSoldering" H 1700 2150 50  0001 C CNN
F 3 "" H 1700 2150 50  0000 C CNN
	1    1700 2150
	1    0    0    -1  
$EndComp
$Comp
L R_Small R20
U 1 1 5A11AF5B
P 1700 2400
F 0 "R20" H 1730 2420 50  0000 L CNN
F 1 "10k" H 1730 2360 50  0000 L CNN
F 2 "Resistors_SMD:R_2010_HandSoldering" H 1700 2400 50  0001 C CNN
F 3 "" H 1700 2400 50  0000 C CNN
	1    1700 2400
	1    0    0    -1  
$EndComp
$Comp
L R_Small R21
U 1 1 5A11AF61
P 1700 2650
F 0 "R21" H 1730 2670 50  0000 L CNN
F 1 "10k" H 1730 2610 50  0000 L CNN
F 2 "Resistors_SMD:R_2010_HandSoldering" H 1700 2650 50  0001 C CNN
F 3 "" H 1700 2650 50  0000 C CNN
	1    1700 2650
	1    0    0    -1  
$EndComp
$Comp
L R_Small R24
U 1 1 5A11AF67
P 2100 2400
F 0 "R24" H 2130 2420 50  0000 L CNN
F 1 "10k" H 2130 2360 50  0000 L CNN
F 2 "Resistors_SMD:R_2010_HandSoldering" H 2100 2400 50  0001 C CNN
F 3 "" H 2100 2400 50  0000 C CNN
	1    2100 2400
	1    0    0    -1  
$EndComp
$Comp
L R_Small R22
U 1 1 5A11AF6D
P 1900 2400
F 0 "R22" H 1930 2420 50  0000 L CNN
F 1 "10k" H 1930 2360 50  0000 L CNN
F 2 "Resistors_SMD:R_2010_HandSoldering" H 1900 2400 50  0001 C CNN
F 3 "" H 1900 2400 50  0000 C CNN
	1    1900 2400
	1    0    0    -1  
$EndComp
$Comp
L R_Small R23
U 1 1 5A11AF73
P 1900 2650
F 0 "R23" H 1930 2670 50  0000 L CNN
F 1 "10k" H 1930 2610 50  0000 L CNN
F 2 "Resistors_SMD:R_2010_HandSoldering" H 1900 2650 50  0001 C CNN
F 3 "" H 1900 2650 50  0000 C CNN
	1    1900 2650
	1    0    0    -1  
$EndComp
Wire Wire Line
	1500 2550 1500 2500
Wire Wire Line
	1500 2300 1500 2250
Wire Wire Line
	1500 2050 1700 2050
Wire Wire Line
	1700 2250 1700 2300
Wire Wire Line
	1700 2500 1700 2550
Wire Wire Line
	1700 2750 1900 2750
Wire Wire Line
	1900 2550 2100 2550
Wire Wire Line
	2100 2550 2100 2500
Wire Wire Line
	1900 2500 1900 2550
Connection ~ 1900 2550
Wire Wire Line
	1900 2300 2100 2300
Wire Wire Line
	2100 2100 2100 2250
Wire Wire Line
	2100 2250 1950 2250
Wire Wire Line
	1950 2250 1950 2300
Connection ~ 1950 2300
Connection ~ 1950 2250
$Comp
L R_Small R29
U 1 1 5A11B7EC
P 2400 2650
F 0 "R29" H 2430 2670 50  0000 L CNN
F 1 "10k" H 2430 2610 50  0000 L CNN
F 2 "Resistors_SMD:R_2010_HandSoldering" H 2400 2650 50  0001 C CNN
F 3 "" H 2400 2650 50  0000 C CNN
	1    2400 2650
	1    0    0    -1  
$EndComp
$Comp
L R_Small R28
U 1 1 5A11B7F2
P 2400 2400
F 0 "R28" H 2430 2420 50  0000 L CNN
F 1 "10k" H 2430 2360 50  0000 L CNN
F 2 "Resistors_SMD:R_2010_HandSoldering" H 2400 2400 50  0001 C CNN
F 3 "" H 2400 2400 50  0000 C CNN
	1    2400 2400
	1    0    0    -1  
$EndComp
$Comp
L R_Small R27
U 1 1 5A11B7F8
P 2400 2150
F 0 "R27" H 2430 2170 50  0000 L CNN
F 1 "10k" H 2430 2110 50  0000 L CNN
F 2 "Resistors_SMD:R_2010_HandSoldering" H 2400 2150 50  0001 C CNN
F 3 "" H 2400 2150 50  0000 C CNN
	1    2400 2150
	1    0    0    -1  
$EndComp
Wire Wire Line
	2400 2550 2400 2500
Wire Wire Line
	2400 2300 2400 2250
$Comp
L R_Small R26
U 1 1 5A11B85D
P 2400 1900
F 0 "R26" H 2430 1920 50  0000 L CNN
F 1 "10k" H 2430 1860 50  0000 L CNN
F 2 "Resistors_SMD:R_2010_HandSoldering" H 2400 1900 50  0001 C CNN
F 3 "" H 2400 1900 50  0000 C CNN
	1    2400 1900
	1    0    0    -1  
$EndComp
Wire Wire Line
	2400 2000 2400 2050
$Comp
L R_Small R25
U 1 1 5A11B918
P 2300 2250
F 0 "R25" H 2330 2270 50  0000 L CNN
F 1 "10k" H 2330 2210 50  0000 L CNN
F 2 "Resistors_SMD:R_2010_HandSoldering" H 2300 2250 50  0001 C CNN
F 3 "" H 2300 2250 50  0000 C CNN
	1    2300 2250
	-1   0    0    -1  
$EndComp
Wire Wire Line
	1800 1800 5150 1800
Wire Wire Line
	2300 1800 2300 2150
Wire Wire Line
	2300 2350 2300 2750
Wire Wire Line
	2300 2750 2400 2750
Wire Wire Line
	1950 1950 1950 1800
Connection ~ 2300 1800
Wire Wire Line
	1500 2750 1500 2800
Wire Wire Line
	4350 2800 750  2800
Wire Wire Line
	2350 2800 2350 2750
Connection ~ 2350 2750
$Comp
L R_Small R32
U 1 1 5A11C18D
P 2950 2400
F 0 "R32" H 2980 2420 50  0000 L CNN
F 1 "10k" H 2980 2360 50  0000 L CNN
F 2 "Resistors_SMD:R_2010_HandSoldering" H 2950 2400 50  0001 C CNN
F 3 "" H 2950 2400 50  0000 C CNN
	1    2950 2400
	1    0    0    -1  
$EndComp
$Comp
L R_Small R33
U 1 1 5A11C244
P 3150 2400
F 0 "R33" H 3180 2420 50  0000 L CNN
F 1 "10k" H 3180 2360 50  0000 L CNN
F 2 "Resistors_SMD:R_2010_HandSoldering" H 3150 2400 50  0001 C CNN
F 3 "" H 3150 2400 50  0000 C CNN
	1    3150 2400
	1    0    0    -1  
$EndComp
$Comp
L R_Small R34
U 1 1 5A11C2C2
P 3350 2400
F 0 "R34" H 3380 2420 50  0000 L CNN
F 1 "10k" H 3380 2360 50  0000 L CNN
F 2 "Resistors_SMD:R_2010_HandSoldering" H 3350 2400 50  0001 C CNN
F 3 "" H 3350 2400 50  0000 C CNN
	1    3350 2400
	1    0    0    -1  
$EndComp
$Comp
L R_Small R35
U 1 1 5A11C33F
P 3550 2400
F 0 "R35" H 3580 2420 50  0000 L CNN
F 1 "10k" H 3580 2360 50  0000 L CNN
F 2 "Resistors_SMD:R_2010_HandSoldering" H 3550 2400 50  0001 C CNN
F 3 "" H 3550 2400 50  0000 C CNN
	1    3550 2400
	1    0    0    -1  
$EndComp
$Comp
L R_Small R36
U 1 1 5A11C3BF
P 3750 2400
F 0 "R36" H 3780 2420 50  0000 L CNN
F 1 "10k" H 3780 2360 50  0000 L CNN
F 2 "Resistors_SMD:R_2010_HandSoldering" H 3750 2400 50  0001 C CNN
F 3 "" H 3750 2400 50  0000 C CNN
	1    3750 2400
	1    0    0    -1  
$EndComp
$Comp
L R_Small R31
U 1 1 5A11C504
P 2750 2650
F 0 "R31" H 2780 2670 50  0000 L CNN
F 1 "10k" H 2780 2610 50  0000 L CNN
F 2 "Resistors_SMD:R_2010_HandSoldering" H 2750 2650 50  0001 C CNN
F 3 "" H 2750 2650 50  0000 C CNN
	1    2750 2650
	1    0    0    -1  
$EndComp
$Comp
L R_Small R30
U 1 1 5A11C50A
P 2750 2400
F 0 "R30" H 2780 2420 50  0000 L CNN
F 1 "10k" H 2780 2360 50  0000 L CNN
F 2 "Resistors_SMD:R_2010_HandSoldering" H 2750 2400 50  0001 C CNN
F 3 "" H 2750 2400 50  0000 C CNN
	1    2750 2400
	1    0    0    -1  
$EndComp
Wire Wire Line
	2750 2550 2750 2500
Wire Wire Line
	2750 2200 2750 2300
Wire Wire Line
	3750 2550 3750 2500
Wire Wire Line
	2950 2550 3750 2550
Wire Wire Line
	2950 2500 2950 2800
Wire Wire Line
	3150 2500 3150 2550
Connection ~ 3150 2550
Wire Wire Line
	3350 2500 3350 2550
Connection ~ 3350 2550
Wire Wire Line
	3550 2500 3550 2550
Connection ~ 3550 2550
Wire Wire Line
	2950 1900 2950 2300
Wire Wire Line
	2950 2250 3750 2250
Wire Wire Line
	3750 1800 3750 2300
Wire Wire Line
	3550 2300 3550 2250
Connection ~ 3550 2250
Wire Wire Line
	3350 2300 3350 2250
Connection ~ 3350 2250
Wire Wire Line
	3150 2300 3150 2250
Connection ~ 3150 2250
Wire Wire Line
	2900 2050 2900 2250
Wire Wire Line
	2900 2250 2750 2250
Connection ~ 2750 2250
Wire Wire Line
	2750 1900 2950 1900
Connection ~ 2950 2250
Wire Wire Line
	2950 2750 2750 2750
Connection ~ 2950 2550
$Comp
L POT RV3
U 1 1 5A11CD7D
P 4150 2050
F 0 "RV3" H 4150 1970 50  0000 C CNN
F 1 "10k" H 4150 2050 50  0000 C CNN
F 2 "Potentiometers:Potentiometer_Bourns_3296W_3-8Zoll_Inline_ScrewUp" H 4150 2050 50  0001 C CNN
F 3 "" H 4150 2050 50  0000 C CNN
	1    4150 2050
	0    1    1    0   
$EndComp
$Comp
L R_Small R39
U 1 1 5A11CD83
P 4350 2400
F 0 "R39" H 4380 2420 50  0000 L CNN
F 1 "10k" H 4380 2360 50  0000 L CNN
F 2 "Resistors_SMD:R_2010_HandSoldering" H 4350 2400 50  0001 C CNN
F 3 "" H 4350 2400 50  0000 C CNN
	1    4350 2400
	1    0    0    -1  
$EndComp
$Comp
L R_Small R40
U 1 1 5A11CD89
P 4550 2400
F 0 "R40" H 4580 2420 50  0000 L CNN
F 1 "10k" H 4580 2360 50  0000 L CNN
F 2 "Resistors_SMD:R_2010_HandSoldering" H 4550 2400 50  0001 C CNN
F 3 "" H 4550 2400 50  0000 C CNN
	1    4550 2400
	1    0    0    -1  
$EndComp
$Comp
L R_Small R41
U 1 1 5A11CD8F
P 4750 2400
F 0 "R41" H 4780 2420 50  0000 L CNN
F 1 "10k" H 4780 2360 50  0000 L CNN
F 2 "Resistors_SMD:R_2010_HandSoldering" H 4750 2400 50  0001 C CNN
F 3 "" H 4750 2400 50  0000 C CNN
	1    4750 2400
	1    0    0    -1  
$EndComp
$Comp
L R_Small R42
U 1 1 5A11CD95
P 4950 2400
F 0 "R42" H 4980 2420 50  0000 L CNN
F 1 "10k" H 4980 2360 50  0000 L CNN
F 2 "Resistors_SMD:R_2010_HandSoldering" H 4950 2400 50  0001 C CNN
F 3 "" H 4950 2400 50  0000 C CNN
	1    4950 2400
	1    0    0    -1  
$EndComp
$Comp
L R_Small R43
U 1 1 5A11CD9B
P 5150 2400
F 0 "R43" H 5180 2420 50  0000 L CNN
F 1 "10k" H 5180 2360 50  0000 L CNN
F 2 "Resistors_SMD:R_2010_HandSoldering" H 5150 2400 50  0001 C CNN
F 3 "" H 5150 2400 50  0000 C CNN
	1    5150 2400
	1    0    0    -1  
$EndComp
$Comp
L R_Small R38
U 1 1 5A11CDA1
P 4150 2650
F 0 "R38" H 4180 2670 50  0000 L CNN
F 1 "10k" H 4180 2610 50  0000 L CNN
F 2 "Resistors_SMD:R_2010_HandSoldering" H 4150 2650 50  0001 C CNN
F 3 "" H 4150 2650 50  0000 C CNN
	1    4150 2650
	1    0    0    -1  
$EndComp
$Comp
L R_Small R37
U 1 1 5A11CDA7
P 4150 2400
F 0 "R37" H 4180 2420 50  0000 L CNN
F 1 "10k" H 4180 2360 50  0000 L CNN
F 2 "Resistors_SMD:R_2010_HandSoldering" H 4150 2400 50  0001 C CNN
F 3 "" H 4150 2400 50  0000 C CNN
	1    4150 2400
	1    0    0    -1  
$EndComp
Wire Wire Line
	4150 2550 4150 2500
Wire Wire Line
	4150 2200 4150 2300
Wire Wire Line
	5150 2550 5150 2500
Wire Wire Line
	4350 2550 5150 2550
Wire Wire Line
	4350 2500 4350 2800
Wire Wire Line
	4550 2500 4550 2550
Connection ~ 4550 2550
Wire Wire Line
	4750 2500 4750 2550
Connection ~ 4750 2550
Wire Wire Line
	4950 2500 4950 2550
Connection ~ 4950 2550
Wire Wire Line
	4350 1900 4350 2300
Wire Wire Line
	4350 2250 5150 2250
Wire Wire Line
	5150 1800 5150 2300
Wire Wire Line
	4950 2300 4950 2250
Connection ~ 4950 2250
Wire Wire Line
	4750 2300 4750 2250
Connection ~ 4750 2250
Wire Wire Line
	4550 2300 4550 2250
Connection ~ 4550 2250
Wire Wire Line
	4300 2050 4300 2250
Wire Wire Line
	4300 2250 4150 2250
Connection ~ 4150 2250
Wire Wire Line
	4150 1900 4350 1900
Connection ~ 4350 2250
Wire Wire Line
	4350 2750 4150 2750
Connection ~ 4350 2550
Connection ~ 1950 1800
Connection ~ 3750 2250
Connection ~ 2400 1800
Connection ~ 5150 2250
Connection ~ 3750 1800
$Comp
L TEST W1
U 1 1 5A11D84F
P 750 2450
F 0 "W1" H 750 2510 50  0000 C CNN
F 1 "TEST" H 750 2380 50  0000 C CNN
F 2 "Connect:Banana_Jack_2Pin" H 750 2450 50  0001 C CNN
F 3 "" H 750 2450 50  0000 C CNN
	1    750  2450
	0    1    1    0   
$EndComp
Wire Wire Line
	750  2250 750  1800
Wire Wire Line
	750  1800 850  1800
Wire Wire Line
	750  2800 750  2650
Connection ~ 1500 2800
Connection ~ 850  1800
Connection ~ 2950 2750
Connection ~ 2350 2800
Connection ~ 4350 2750
Connection ~ 2950 2800
$EndSCHEMATC
