(kicad_sch (version 20210621) (generator eeschema)

  (uuid f561b32f-9cb6-4782-8d97-cbabd2cb382b)

  (paper "A4")

  (lib_symbols
    (symbol "current-source-v0,1-rescue:MAX874" (pin_names (offset 1.016)) (in_bom yes) (on_board yes)
      (property "Reference" "U" (id 0) (at 2.54 6.35 0)
        (effects (font (size 1.27 1.27)))
      )
      (property "Value" "MAX874" (id 1) (at 1.27 -6.35 0)
        (effects (font (size 1.27 1.27)) (justify left))
      )
      (property "Footprint" "" (id 2) (at 0 0 0)
        (effects (font (size 1.27 1.27)))
      )
      (property "Datasheet" "" (id 3) (at 0 0 0)
        (effects (font (size 1.27 1.27)))
      )
      (symbol "MAX874_0_1"
        (rectangle (start -8.89 5.08) (end 8.89 -5.08)
          (stroke (width 0)) (fill (type none))
        )
      )
      (symbol "MAX874_1_1"
        (pin input line (at -16.51 2.54 0) (length 7.62)
          (name "VIN" (effects (font (size 1.27 1.27))))
          (number "2" (effects (font (size 1.27 1.27))))
        )
        (pin output line (at 16.51 -2.54 180) (length 7.62)
          (name "Temper" (effects (font (size 1.016 1.016))))
          (number "3" (effects (font (size 1.27 1.27))))
        )
        (pin power_in line (at 0 -7.62 90) (length 2.54)
          (name "GND" (effects (font (size 0.762 0.762))))
          (number "4" (effects (font (size 1.27 1.27))))
        )
        (pin input line (at -16.51 -2.54 0) (length 7.62)
          (name "TRIM" (effects (font (size 1.27 1.27))))
          (number "5" (effects (font (size 1.27 1.27))))
        )
        (pin output line (at 16.51 2.54 180) (length 7.62)
          (name "VOUT" (effects (font (size 1.27 1.27))))
          (number "6" (effects (font (size 1.27 1.27))))
        )
      )
    )
    (symbol "current-source-v0,1-rescue:POT" (pin_names (offset 1.016) hide) (in_bom yes) (on_board yes)
      (property "Reference" "RV" (id 0) (at 0 -2.032 0)
        (effects (font (size 1.27 1.27)))
      )
      (property "Value" "POT" (id 1) (at 0 0 0)
        (effects (font (size 1.27 1.27)))
      )
      (property "Footprint" "" (id 2) (at 0 0 0)
        (effects (font (size 1.27 1.27)))
      )
      (property "Datasheet" "" (id 3) (at 0 0 0)
        (effects (font (size 1.27 1.27)))
      )
      (symbol "POT_0_1"
        (rectangle (start -2.54 1.016) (end 2.54 -1.016)
          (stroke (width 0)) (fill (type none))
        )
        (polyline
          (pts
            (xy 0 1.016)
            (xy -0.508 1.524)
            (xy 0.508 1.524)
          )
          (stroke (width 0)) (fill (type outline))
        )
      )
      (symbol "POT_1_1"
        (pin passive line (at -3.81 0 0) (length 1.27)
          (name "1" (effects (font (size 1.016 1.016))))
          (number "1" (effects (font (size 1.016 1.016))))
        )
        (pin passive line (at 0 3.81 270) (length 2.54)
          (name "2" (effects (font (size 1.016 1.016))))
          (number "2" (effects (font (size 1.016 1.016))))
        )
        (pin passive line (at 3.81 0 180) (length 1.27)
          (name "3" (effects (font (size 1.016 1.016))))
          (number "3" (effects (font (size 1.016 1.016))))
        )
      )
    )
    (symbol "current-source-v0,1-rescue:Q_NMOS_DGS" (pin_names (offset 0) hide) (in_bom yes) (on_board yes)
      (property "Reference" "Q" (id 0) (at 7.62 1.27 0)
        (effects (font (size 1.27 1.27)) (justify right))
      )
      (property "Value" "Q_NMOS_DGS" (id 1) (at 16.51 -1.27 0)
        (effects (font (size 1.27 1.27)) (justify right))
      )
      (property "Footprint" "" (id 2) (at 5.08 2.54 0)
        (effects (font (size 1.27 1.27)))
      )
      (property "Datasheet" "" (id 3) (at 0 0 0)
        (effects (font (size 1.27 1.27)))
      )
      (symbol "Q_NMOS_DGS_0_1"
        (circle (center 1.27 0) (radius 2.8194) (stroke (width 0.254)) (fill (type none)))
        (polyline
          (pts
            (xy 0.762 -1.778)
            (xy 2.54 -1.778)
          )
          (stroke (width 0)) (fill (type none))
        )
        (polyline
          (pts
            (xy 0.762 -1.27)
            (xy 0.762 -2.286)
          )
          (stroke (width 0.254)) (fill (type none))
        )
        (polyline
          (pts
            (xy 0.762 0)
            (xy 2.54 0)
          )
          (stroke (width 0)) (fill (type none))
        )
        (polyline
          (pts
            (xy 0.762 0.508)
            (xy 0.762 -0.508)
          )
          (stroke (width 0.254)) (fill (type none))
        )
        (polyline
          (pts
            (xy 0.762 1.778)
            (xy 2.54 1.778)
          )
          (stroke (width 0)) (fill (type none))
        )
        (polyline
          (pts
            (xy 0.762 2.286)
            (xy 0.762 1.27)
          )
          (stroke (width 0.254)) (fill (type none))
        )
        (polyline
          (pts
            (xy 2.54 -1.778)
            (xy 2.54 -2.54)
          )
          (stroke (width 0)) (fill (type none))
        )
        (polyline
          (pts
            (xy 2.54 -1.778)
            (xy 2.54 0)
          )
          (stroke (width 0)) (fill (type none))
        )
        (polyline
          (pts
            (xy 2.54 2.54)
            (xy 2.54 1.778)
          )
          (stroke (width 0)) (fill (type none))
        )
        (polyline
          (pts
            (xy 0.254 1.905)
            (xy 0.254 -1.905)
            (xy 0.254 -1.905)
          )
          (stroke (width 0.254)) (fill (type none))
        )
        (polyline
          (pts
            (xy 1.016 0)
            (xy 2.032 0.381)
            (xy 2.032 -0.381)
            (xy 1.016 0)
          )
          (stroke (width 0)) (fill (type outline))
        )
      )
      (symbol "Q_NMOS_DGS_1_1"
        (pin passive line (at 2.54 5.08 270) (length 2.54)
          (name "D" (effects (font (size 1.27 1.27))))
          (number "1" (effects (font (size 1.27 1.27))))
        )
        (pin input line (at -5.08 0 0) (length 5.334)
          (name "G" (effects (font (size 1.27 1.27))))
          (number "2" (effects (font (size 1.27 1.27))))
        )
        (pin passive line (at 2.54 -5.08 90) (length 2.54)
          (name "S" (effects (font (size 1.27 1.27))))
          (number "3" (effects (font (size 1.27 1.27))))
        )
      )
    )
    (symbol "current-source-v0,1-rescue:R_Small" (pin_numbers hide) (pin_names (offset 0.254) hide) (in_bom yes) (on_board yes)
      (property "Reference" "R" (id 0) (at 0.762 0.508 0)
        (effects (font (size 1.27 1.27)) (justify left))
      )
      (property "Value" "R_Small" (id 1) (at 0.762 -1.016 0)
        (effects (font (size 1.27 1.27)) (justify left))
      )
      (property "Footprint" "" (id 2) (at 0 0 0)
        (effects (font (size 1.27 1.27)))
      )
      (property "Datasheet" "" (id 3) (at 0 0 0)
        (effects (font (size 1.27 1.27)))
      )
      (property "ki_fp_filters" "Resistor_* R_*" (id 4) (at 0 0 0)
        (effects (font (size 1.27 1.27)) hide)
      )
      (symbol "R_Small_0_1"
        (rectangle (start -0.762 1.778) (end 0.762 -1.778)
          (stroke (width 0.2032)) (fill (type none))
        )
      )
      (symbol "R_Small_1_1"
        (pin passive line (at 0 2.54 270) (length 0.762)
          (name "~" (effects (font (size 1.016 1.016))))
          (number "1" (effects (font (size 1.016 1.016))))
        )
        (pin passive line (at 0 -2.54 90) (length 0.762)
          (name "~" (effects (font (size 1.016 1.016))))
          (number "2" (effects (font (size 1.016 1.016))))
        )
      )
    )
    (symbol "current-source-v0,1-rescue:Switch_SPDT_x2" (pin_names (offset 0)) (in_bom yes) (on_board yes)
      (property "Reference" "SW" (id 0) (at -5.08 3.81 0)
        (effects (font (size 1.27 1.27)))
      )
      (property "Value" "Switch_SPDT_x2" (id 1) (at -6.35 -3.81 0)
        (effects (font (size 1.27 1.27)))
      )
      (property "Footprint" "" (id 2) (at 0 0 0)
        (effects (font (size 1.27 1.27)))
      )
      (property "Datasheet" "" (id 3) (at 0 0 0)
        (effects (font (size 1.27 1.27)))
      )
      (symbol "Switch_SPDT_x2_0_0"
        (circle (center -3.81 0) (radius 1.27) (stroke (width 0)) (fill (type none)))
        (circle (center 3.81 -2.54) (radius 1.27) (stroke (width 0)) (fill (type none)))
      )
      (symbol "Switch_SPDT_x2_0_1"
        (circle (center 3.81 2.54) (radius 1.27) (stroke (width 0)) (fill (type none)))
        (polyline
          (pts
            (xy -2.54 0)
            (xy 3.81 1.27)
          )
          (stroke (width 0)) (fill (type none))
        )
      )
      (symbol "Switch_SPDT_x2_1_1"
        (pin passive line (at 7.62 2.54 180) (length 2.54)
          (name "A" (effects (font (size 1.27 1.27))))
          (number "1" (effects (font (size 1.27 1.27))))
        )
        (pin passive line (at -7.62 0 0) (length 2.54)
          (name "B" (effects (font (size 1.27 1.27))))
          (number "2" (effects (font (size 1.27 1.27))))
        )
        (pin passive line (at 7.62 -2.54 180) (length 2.54)
          (name "C" (effects (font (size 1.27 1.27))))
          (number "3" (effects (font (size 1.27 1.27))))
        )
      )
      (symbol "Switch_SPDT_x2_2_1"
        (pin passive line (at 7.62 2.54 180) (length 2.54)
          (name "A" (effects (font (size 1.27 1.27))))
          (number "4" (effects (font (size 1.27 1.27))))
        )
        (pin passive line (at -7.62 0 0) (length 2.54)
          (name "B" (effects (font (size 1.27 1.27))))
          (number "5" (effects (font (size 1.27 1.27))))
        )
        (pin passive line (at 7.62 -2.54 180) (length 2.54)
          (name "C" (effects (font (size 1.27 1.27))))
          (number "6" (effects (font (size 1.27 1.27))))
        )
      )
    )
    (symbol "current-source-v0,1-rescue:TEST_1P" (pin_numbers hide) (pin_names (offset 0.762) hide) (in_bom yes) (on_board yes)
      (property "Reference" "W" (id 0) (at 0 6.858 0)
        (effects (font (size 1.27 1.27)))
      )
      (property "Value" "TEST_1P" (id 1) (at 0 5.08 0)
        (effects (font (size 1.27 1.27)))
      )
      (property "Footprint" "" (id 2) (at 5.08 0 0)
        (effects (font (size 1.27 1.27)))
      )
      (property "Datasheet" "" (id 3) (at 5.08 0 0)
        (effects (font (size 1.27 1.27)))
      )
      (symbol "TEST_1P_0_1"
        (circle (center 0 3.302) (radius 0.762) (stroke (width 0)) (fill (type none)))
      )
      (symbol "TEST_1P_1_1"
        (pin passive line (at 0 0 90) (length 2.54)
          (name "1" (effects (font (size 1.27 1.27))))
          (number "1" (effects (font (size 1.27 1.27))))
        )
      )
    )
    (symbol "current-source-v0,1-rescue:TL071" (in_bom yes) (on_board yes)
      (property "Reference" "U" (id 0) (at 0 6.35 0)
        (effects (font (size 1.27 1.27)) (justify left))
      )
      (property "Value" "TL071" (id 1) (at 0 3.81 0)
        (effects (font (size 1.27 1.27)) (justify left))
      )
      (property "Footprint" "" (id 2) (at 1.27 5.08 0)
        (effects (font (size 1.27 1.27)))
      )
      (property "Datasheet" "" (id 3) (at 0 6.35 0)
        (effects (font (size 1.27 1.27)))
      )
      (symbol "TL071_0_1"
        (polyline
          (pts
            (xy -5.08 5.08)
            (xy 5.08 0)
            (xy -5.08 -5.08)
            (xy -5.08 5.08)
          )
          (stroke (width 0.1524)) (fill (type background))
        )
      )
      (symbol "TL071_1_1"
        (pin input line (at -7.62 -2.54 0) (length 2.54)
          (name "-" (effects (font (size 1.27 1.27))))
          (number "2" (effects (font (size 1.27 1.27))))
        )
        (pin input line (at -7.62 2.54 0) (length 2.54)
          (name "+" (effects (font (size 1.27 1.27))))
          (number "3" (effects (font (size 1.27 1.27))))
        )
        (pin passive line (at -2.54 -7.62 90) (length 3.81)
          (name "V-" (effects (font (size 1.27 1.27))))
          (number "4" (effects (font (size 1.27 1.27))))
        )
        (pin output line (at 7.62 0 180) (length 2.54)
          (name "~" (effects (font (size 1.27 1.27))))
          (number "6" (effects (font (size 1.27 1.27))))
        )
        (pin passive line (at -2.54 7.62 270) (length 3.81)
          (name "V+" (effects (font (size 1.27 1.27))))
          (number "7" (effects (font (size 1.27 1.27))))
        )
      )
    )
  )

  (junction (at 48.26 81.28) (diameter 0.9144) (color 0 0 0 0))
  (junction (at 71.12 64.77) (diameter 0.9144) (color 0 0 0 0))
  (junction (at 71.12 71.12) (diameter 0.9144) (color 0 0 0 0))
  (junction (at 76.2 64.77) (diameter 0.9144) (color 0 0 0 0))
  (junction (at 78.74 71.12) (diameter 0.9144) (color 0 0 0 0))
  (junction (at 78.74 77.47) (diameter 0.9144) (color 0 0 0 0))
  (junction (at 88.9 77.47) (diameter 0.9144) (color 0 0 0 0))
  (junction (at 88.9 82.55) (diameter 0.9144) (color 0 0 0 0))
  (junction (at 99.06 52.07) (diameter 0.9144) (color 0 0 0 0))
  (junction (at 99.06 59.69) (diameter 0.9144) (color 0 0 0 0))
  (junction (at 106.68 54.61) (diameter 0.9144) (color 0 0 0 0))
  (junction (at 106.68 69.85) (diameter 0.9144) (color 0 0 0 0))
  (junction (at 106.68 77.47) (diameter 0.9144) (color 0 0 0 0))

  (wire (pts (xy 48.26 59.69) (xy 55.88 59.69))
    (stroke (width 0) (type solid) (color 0 0 0 0))
    (uuid 7b770215-a3c3-4fda-8c49-1381bdd971ce)
  )
  (wire (pts (xy 48.26 66.04) (xy 48.26 64.77))
    (stroke (width 0) (type solid) (color 0 0 0 0))
    (uuid a208f918-0988-4cea-880e-e8a1eb2a5934)
  )
  (wire (pts (xy 48.26 72.39) (xy 48.26 71.12))
    (stroke (width 0) (type solid) (color 0 0 0 0))
    (uuid 620b1e97-e871-4ebe-a4f7-3a930184b3f4)
  )
  (wire (pts (xy 48.26 77.47) (xy 48.26 81.28))
    (stroke (width 0) (type solid) (color 0 0 0 0))
    (uuid 9cc9a46b-c3ba-40e5-9f45-039b4108aeeb)
  )
  (wire (pts (xy 48.26 81.28) (xy 48.26 92.71))
    (stroke (width 0) (type solid) (color 0 0 0 0))
    (uuid a5e789ad-bcbc-48e4-83ea-91c908ee5b12)
  )
  (wire (pts (xy 48.26 81.28) (xy 52.07 81.28))
    (stroke (width 0) (type solid) (color 0 0 0 0))
    (uuid 096cc2ad-faaf-46fd-93f5-ea25217c6925)
  )
  (wire (pts (xy 55.88 64.77) (xy 55.88 66.04))
    (stroke (width 0) (type solid) (color 0 0 0 0))
    (uuid 5c5ec889-3e0b-4e0f-9435-47cf8f8e3afd)
  )
  (wire (pts (xy 55.88 71.12) (xy 55.88 72.39))
    (stroke (width 0) (type solid) (color 0 0 0 0))
    (uuid 34bc412f-6e70-4a4f-a65d-ec08671d900a)
  )
  (wire (pts (xy 55.88 77.47) (xy 63.5 77.47))
    (stroke (width 0) (type solid) (color 0 0 0 0))
    (uuid d2bccf4a-7d99-4bbe-a8b9-8f59dd291124)
  )
  (wire (pts (xy 63.5 59.69) (xy 71.12 59.69))
    (stroke (width 0) (type solid) (color 0 0 0 0))
    (uuid d2a9efc4-f817-4749-a3fc-0abd223e15f5)
  )
  (wire (pts (xy 63.5 66.04) (xy 63.5 64.77))
    (stroke (width 0) (type solid) (color 0 0 0 0))
    (uuid 6efef1a2-7351-4621-b5f2-f7abf8c3bcb1)
  )
  (wire (pts (xy 63.5 72.39) (xy 63.5 71.12))
    (stroke (width 0) (type solid) (color 0 0 0 0))
    (uuid a74e5aed-c62e-4cbf-b3cb-2a84b7a740fe)
  )
  (wire (pts (xy 71.12 59.69) (xy 71.12 64.77))
    (stroke (width 0) (type solid) (color 0 0 0 0))
    (uuid ea91a222-4990-4b05-9630-dbfc74a45111)
  )
  (wire (pts (xy 71.12 64.77) (xy 76.2 64.77))
    (stroke (width 0) (type solid) (color 0 0 0 0))
    (uuid c636373f-341f-4730-90f9-f1502266141f)
  )
  (wire (pts (xy 71.12 69.85) (xy 71.12 71.12))
    (stroke (width 0) (type solid) (color 0 0 0 0))
    (uuid f0e7aa10-5529-4fe8-91a3-b6c7e3d69c02)
  )
  (wire (pts (xy 71.12 71.12) (xy 71.12 72.39))
    (stroke (width 0) (type solid) (color 0 0 0 0))
    (uuid 7a06199e-0dea-4d0d-bfd2-08880d82f4aa)
  )
  (wire (pts (xy 71.12 71.12) (xy 78.74 71.12))
    (stroke (width 0) (type solid) (color 0 0 0 0))
    (uuid 56bf2535-ef2c-4c25-b184-7f4473ecf38a)
  )
  (wire (pts (xy 71.12 77.47) (xy 78.74 77.47))
    (stroke (width 0) (type solid) (color 0 0 0 0))
    (uuid 1e0b3ef6-71af-48ef-8c0e-73a97140c4a5)
  )
  (wire (pts (xy 76.2 63.5) (xy 76.2 64.77))
    (stroke (width 0) (type solid) (color 0 0 0 0))
    (uuid fc523160-2e79-4adb-905a-a277efeed3b9)
  )
  (wire (pts (xy 76.2 64.77) (xy 78.74 64.77))
    (stroke (width 0) (type solid) (color 0 0 0 0))
    (uuid 928529b7-5e12-40b2-bf0f-ead4bc613495)
  )
  (wire (pts (xy 78.74 48.26) (xy 83.82 48.26))
    (stroke (width 0) (type solid) (color 0 0 0 0))
    (uuid bf474f88-7b6c-4b06-a2b0-1665da1145e0)
  )
  (wire (pts (xy 78.74 69.85) (xy 78.74 71.12))
    (stroke (width 0) (type solid) (color 0 0 0 0))
    (uuid afa2917b-d546-429c-a729-cb2ab05c3223)
  )
  (wire (pts (xy 78.74 71.12) (xy 78.74 72.39))
    (stroke (width 0) (type solid) (color 0 0 0 0))
    (uuid ea1a65a6-9199-48fc-ba03-d16646728c05)
  )
  (wire (pts (xy 78.74 71.12) (xy 81.28 71.12))
    (stroke (width 0) (type solid) (color 0 0 0 0))
    (uuid 24a43335-6482-4858-8044-20c3fd7fda71)
  )
  (wire (pts (xy 78.74 77.47) (xy 88.9 77.47))
    (stroke (width 0) (type solid) (color 0 0 0 0))
    (uuid fdca3cfa-2834-4cfd-9ed4-2dda2000167b)
  )
  (wire (pts (xy 81.28 71.12) (xy 81.28 63.5))
    (stroke (width 0) (type solid) (color 0 0 0 0))
    (uuid ce6cc9f3-f580-401c-88c2-e861c90bfbee)
  )
  (wire (pts (xy 83.82 48.26) (xy 83.82 57.15))
    (stroke (width 0) (type solid) (color 0 0 0 0))
    (uuid fb3a3c5c-ecc4-46e1-a9b7-f438a8c8a2bf)
  )
  (wire (pts (xy 83.82 62.23) (xy 83.82 69.85))
    (stroke (width 0) (type solid) (color 0 0 0 0))
    (uuid 91edc275-e25a-4fd9-b1fa-850448bd6b5c)
  )
  (wire (pts (xy 83.82 69.85) (xy 106.68 69.85))
    (stroke (width 0) (type solid) (color 0 0 0 0))
    (uuid 05b2ebd0-31d2-46ba-a11e-a6531107d4a8)
  )
  (wire (pts (xy 85.09 81.28) (xy 99.06 81.28))
    (stroke (width 0) (type solid) (color 0 0 0 0))
    (uuid 936bd1cb-0bf8-4669-9040-16a1b3a569a5)
  )
  (wire (pts (xy 88.9 52.07) (xy 99.06 52.07))
    (stroke (width 0) (type solid) (color 0 0 0 0))
    (uuid 52c79ac0-0a3e-403d-81f1-ce75bf0859d6)
  )
  (wire (pts (xy 88.9 67.31) (xy 88.9 77.47))
    (stroke (width 0) (type solid) (color 0 0 0 0))
    (uuid 7e1db7bf-d22d-4f23-8e20-7a82da10ae40)
  )
  (wire (pts (xy 88.9 77.47) (xy 88.9 82.55))
    (stroke (width 0) (type solid) (color 0 0 0 0))
    (uuid dd6ee7df-97f1-4ed2-b68e-eb46bb84a94e)
  )
  (wire (pts (xy 88.9 77.47) (xy 106.68 77.47))
    (stroke (width 0) (type solid) (color 0 0 0 0))
    (uuid cb006242-d449-4133-95f4-2295e07c5929)
  )
  (wire (pts (xy 88.9 82.55) (xy 88.9 91.44))
    (stroke (width 0) (type solid) (color 0 0 0 0))
    (uuid 63e980e8-665a-4085-b0c8-2cdbc6c96f1f)
  )
  (wire (pts (xy 88.9 91.44) (xy 68.58 91.44))
    (stroke (width 0) (type solid) (color 0 0 0 0))
    (uuid 7d9304f8-bcc2-4b78-affe-6815d9647095)
  )
  (wire (pts (xy 90.17 86.36) (xy 85.09 86.36))
    (stroke (width 0) (type solid) (color 0 0 0 0))
    (uuid 9e87b172-b917-49b3-948e-d73a0ab5c0c2)
  )
  (wire (pts (xy 93.98 82.55) (xy 88.9 82.55))
    (stroke (width 0) (type solid) (color 0 0 0 0))
    (uuid c8904875-37d7-4ecc-b1eb-8330eda64f7a)
  )
  (wire (pts (xy 93.98 90.17) (xy 93.98 92.71))
    (stroke (width 0) (type solid) (color 0 0 0 0))
    (uuid 258e50e0-a1f2-42c8-93fe-162d1f33552b)
  )
  (wire (pts (xy 93.98 92.71) (xy 48.26 92.71))
    (stroke (width 0) (type solid) (color 0 0 0 0))
    (uuid 0eaaf77b-0abb-4dc0-a9a2-67b09abdf72d)
  )
  (wire (pts (xy 99.06 52.07) (xy 106.68 52.07))
    (stroke (width 0) (type solid) (color 0 0 0 0))
    (uuid 79fad0ab-8697-40ff-9a36-8f6ec17f8c50)
  )
  (wire (pts (xy 99.06 59.69) (xy 99.06 52.07))
    (stroke (width 0) (type solid) (color 0 0 0 0))
    (uuid 6e282362-90ae-4026-9c85-11f4b3fcb378)
  )
  (wire (pts (xy 99.06 81.28) (xy 99.06 59.69))
    (stroke (width 0) (type solid) (color 0 0 0 0))
    (uuid 6e282362-90ae-4026-9c85-11f4b3fcb378)
  )
  (wire (pts (xy 106.68 52.07) (xy 106.68 54.61))
    (stroke (width 0) (type solid) (color 0 0 0 0))
    (uuid 4a2e2893-b233-4f67-a008-3a7da249cd8d)
  )
  (wire (pts (xy 106.68 54.61) (xy 107.95 54.61))
    (stroke (width 0) (type solid) (color 0 0 0 0))
    (uuid 8a06fc08-4849-4861-a7c5-91a5b5bf971e)
  )
  (wire (pts (xy 106.68 64.77) (xy 107.95 64.77))
    (stroke (width 0) (type solid) (color 0 0 0 0))
    (uuid 66f24a36-7ca3-4c44-aa53-1a44eb75d25d)
  )
  (wire (pts (xy 106.68 69.85) (xy 106.68 71.12))
    (stroke (width 0) (type solid) (color 0 0 0 0))
    (uuid f1c64543-bbc8-4477-99e3-80bc901715a1)
  )
  (wire (pts (xy 106.68 69.85) (xy 107.95 69.85))
    (stroke (width 0) (type solid) (color 0 0 0 0))
    (uuid 56c87758-5600-4259-a4d2-9e0497c4b882)
  )
  (wire (pts (xy 106.68 76.2) (xy 106.68 77.47))
    (stroke (width 0) (type solid) (color 0 0 0 0))
    (uuid b5c06546-6ef3-4bdc-b062-7530154b1fa1)
  )
  (wire (pts (xy 106.68 77.47) (xy 107.95 77.47))
    (stroke (width 0) (type solid) (color 0 0 0 0))
    (uuid e1e1542b-4267-4908-94b8-ead154fc4423)
  )

  (symbol (lib_id "current-source-v0,1-rescue:TEST_1P") (at 107.95 54.61 270) (unit 1)
    (in_bom yes) (on_board yes)
    (uuid 00000000-0000-0000-0000-00005a0f41bf)
    (property "Reference" "W?" (id 0) (at 114.808 54.61 0))
    (property "Value" "V+" (id 1) (at 113.03 54.61 0))
    (property "Footprint" "" (id 2) (at 107.95 59.69 0))
    (property "Datasheet" "" (id 3) (at 107.95 59.69 0))
    (pin "1" (uuid 1c2a8408-0187-47d7-93a1-192b11959d86))
  )

  (symbol (lib_id "current-source-v0,1-rescue:TEST_1P") (at 107.95 64.77 270) (unit 1)
    (in_bom yes) (on_board yes)
    (uuid 00000000-0000-0000-0000-00005a0f425a)
    (property "Reference" "W?" (id 0) (at 114.808 64.77 0))
    (property "Value" "I+" (id 1) (at 113.03 64.77 0))
    (property "Footprint" "" (id 2) (at 107.95 69.85 0))
    (property "Datasheet" "" (id 3) (at 107.95 69.85 0))
    (pin "1" (uuid dc45f9a7-ef8a-4e1c-81a6-f9b4b2004e39))
  )

  (symbol (lib_id "current-source-v0,1-rescue:TEST_1P") (at 107.95 69.85 270) (unit 1)
    (in_bom yes) (on_board yes)
    (uuid 00000000-0000-0000-0000-00005a0f418b)
    (property "Reference" "W?" (id 0) (at 114.808 69.85 0))
    (property "Value" "I-" (id 1) (at 113.03 69.85 0))
    (property "Footprint" "" (id 2) (at 107.95 74.93 0))
    (property "Datasheet" "" (id 3) (at 107.95 74.93 0))
    (pin "1" (uuid 6586a216-67e5-46c5-8e73-52512c3a3c81))
  )

  (symbol (lib_id "current-source-v0,1-rescue:TEST_1P") (at 107.95 77.47 270) (unit 1)
    (in_bom yes) (on_board yes)
    (uuid 00000000-0000-0000-0000-00005a0f4292)
    (property "Reference" "W?" (id 0) (at 114.808 77.47 0))
    (property "Value" "GND" (id 1) (at 113.03 77.47 0))
    (property "Footprint" "" (id 2) (at 107.95 82.55 0))
    (property "Datasheet" "" (id 3) (at 107.95 82.55 0))
    (pin "1" (uuid e939719c-f31f-440d-8854-eaa4c2e0b1da))
  )

  (symbol (lib_id "current-source-v0,1-rescue:R_Small") (at 48.26 62.23 0) (mirror y) (unit 1)
    (in_bom yes) (on_board yes)
    (uuid 00000000-0000-0000-0000-00005a0f5097)
    (property "Reference" "R?" (id 0) (at 47.498 61.722 0)
      (effects (font (size 1.27 1.27)) (justify left))
    )
    (property "Value" "1000" (id 1) (at 47.498 63.246 0)
      (effects (font (size 1.27 1.27)) (justify left))
    )
    (property "Footprint" "" (id 2) (at 48.26 62.23 0))
    (property "Datasheet" "" (id 3) (at 48.26 62.23 0))
    (pin "1" (uuid 7bdf1d60-9bcc-402c-b900-577fa00e2751))
    (pin "2" (uuid ba160734-9db8-440a-b8e5-e5e0eac7ace7))
  )

  (symbol (lib_id "current-source-v0,1-rescue:R_Small") (at 48.26 68.58 0) (mirror y) (unit 1)
    (in_bom yes) (on_board yes)
    (uuid 00000000-0000-0000-0000-00005a0f505d)
    (property "Reference" "R?" (id 0) (at 47.498 68.072 0)
      (effects (font (size 1.27 1.27)) (justify left))
    )
    (property "Value" "1000" (id 1) (at 47.498 69.596 0)
      (effects (font (size 1.27 1.27)) (justify left))
    )
    (property "Footprint" "" (id 2) (at 48.26 68.58 0))
    (property "Datasheet" "" (id 3) (at 48.26 68.58 0))
    (pin "1" (uuid b5ea8515-8d45-41fc-8ee4-78bceff62e37))
    (pin "2" (uuid ee83e3c8-dd36-4cc4-bf63-c49f91badd07))
  )

  (symbol (lib_id "current-source-v0,1-rescue:R_Small") (at 48.26 74.93 0) (mirror y) (unit 1)
    (in_bom yes) (on_board yes)
    (uuid 00000000-0000-0000-0000-00005a0f46b2)
    (property "Reference" "R?" (id 0) (at 47.498 74.422 0)
      (effects (font (size 1.27 1.27)) (justify left))
    )
    (property "Value" "1000" (id 1) (at 47.498 75.946 0)
      (effects (font (size 1.27 1.27)) (justify left))
    )
    (property "Footprint" "" (id 2) (at 48.26 74.93 0))
    (property "Datasheet" "" (id 3) (at 48.26 74.93 0))
    (pin "1" (uuid 23a3dc0f-760c-4eda-bf0e-4f7d0bc92bff))
    (pin "2" (uuid 014069d8-dc61-4cc8-bebc-7ffffddaa2aa))
  )

  (symbol (lib_id "current-source-v0,1-rescue:R_Small") (at 55.88 62.23 0) (mirror y) (unit 1)
    (in_bom yes) (on_board yes)
    (uuid 00000000-0000-0000-0000-00005a0f5113)
    (property "Reference" "R?" (id 0) (at 55.118 61.722 0)
      (effects (font (size 1.27 1.27)) (justify left))
    )
    (property "Value" "1000" (id 1) (at 55.118 63.246 0)
      (effects (font (size 1.27 1.27)) (justify left))
    )
    (property "Footprint" "" (id 2) (at 55.88 62.23 0))
    (property "Datasheet" "" (id 3) (at 55.88 62.23 0))
    (pin "1" (uuid 22967e85-4e4a-4a16-981e-4adca0e23ba7))
    (pin "2" (uuid 2717a828-01b6-4ea9-be32-dc1910f8035c))
  )

  (symbol (lib_id "current-source-v0,1-rescue:R_Small") (at 55.88 68.58 0) (mirror y) (unit 1)
    (in_bom yes) (on_board yes)
    (uuid 00000000-0000-0000-0000-00005a0f510d)
    (property "Reference" "R?" (id 0) (at 55.118 68.072 0)
      (effects (font (size 1.27 1.27)) (justify left))
    )
    (property "Value" "1000" (id 1) (at 55.118 69.596 0)
      (effects (font (size 1.27 1.27)) (justify left))
    )
    (property "Footprint" "" (id 2) (at 55.88 68.58 0))
    (property "Datasheet" "" (id 3) (at 55.88 68.58 0))
    (pin "1" (uuid 28e92dd7-02bb-47dc-afe1-70f6665d223f))
    (pin "2" (uuid a4a49566-2029-4263-bf27-b5f66c22d35f))
  )

  (symbol (lib_id "current-source-v0,1-rescue:R_Small") (at 55.88 74.93 0) (mirror y) (unit 1)
    (in_bom yes) (on_board yes)
    (uuid 00000000-0000-0000-0000-00005a0f5107)
    (property "Reference" "R?" (id 0) (at 55.118 74.422 0)
      (effects (font (size 1.27 1.27)) (justify left))
    )
    (property "Value" "1000" (id 1) (at 55.118 75.946 0)
      (effects (font (size 1.27 1.27)) (justify left))
    )
    (property "Footprint" "" (id 2) (at 55.88 74.93 0))
    (property "Datasheet" "" (id 3) (at 55.88 74.93 0))
    (pin "1" (uuid 65538903-4db2-4155-99ea-5826faffd663))
    (pin "2" (uuid ec3c7790-95e8-4679-80ed-010ee496a47e))
  )

  (symbol (lib_id "current-source-v0,1-rescue:R_Small") (at 63.5 62.23 0) (mirror y) (unit 1)
    (in_bom yes) (on_board yes)
    (uuid 00000000-0000-0000-0000-00005a0f5190)
    (property "Reference" "R?" (id 0) (at 62.738 61.722 0)
      (effects (font (size 1.27 1.27)) (justify left))
    )
    (property "Value" "1000" (id 1) (at 62.738 63.246 0)
      (effects (font (size 1.27 1.27)) (justify left))
    )
    (property "Footprint" "" (id 2) (at 63.5 62.23 0))
    (property "Datasheet" "" (id 3) (at 63.5 62.23 0))
    (pin "1" (uuid 33b95430-83c9-42e9-8c42-f06c7cf4a444))
    (pin "2" (uuid 2456df36-01d0-4734-b192-ff4a96e8411b))
  )

  (symbol (lib_id "current-source-v0,1-rescue:R_Small") (at 63.5 68.58 0) (mirror y) (unit 1)
    (in_bom yes) (on_board yes)
    (uuid 00000000-0000-0000-0000-00005a0f518a)
    (property "Reference" "R?" (id 0) (at 62.738 68.072 0)
      (effects (font (size 1.27 1.27)) (justify left))
    )
    (property "Value" "1000" (id 1) (at 62.738 69.596 0)
      (effects (font (size 1.27 1.27)) (justify left))
    )
    (property "Footprint" "" (id 2) (at 63.5 68.58 0))
    (property "Datasheet" "" (id 3) (at 63.5 68.58 0))
    (pin "1" (uuid a7be24b5-b4bc-4307-bd09-73d176d83d24))
    (pin "2" (uuid 129532f7-f9f1-4d9a-8792-bbc44156d9f3))
  )

  (symbol (lib_id "current-source-v0,1-rescue:R_Small") (at 63.5 74.93 0) (mirror y) (unit 1)
    (in_bom yes) (on_board yes)
    (uuid 00000000-0000-0000-0000-00005a0f5184)
    (property "Reference" "R?" (id 0) (at 62.738 74.422 0)
      (effects (font (size 1.27 1.27)) (justify left))
    )
    (property "Value" "1000" (id 1) (at 62.738 75.946 0)
      (effects (font (size 1.27 1.27)) (justify left))
    )
    (property "Footprint" "" (id 2) (at 63.5 74.93 0))
    (property "Datasheet" "" (id 3) (at 63.5 74.93 0))
    (pin "1" (uuid 76c3163a-96bd-4053-8fc6-078de0ab6cec))
    (pin "2" (uuid bf089683-5dbb-4a46-aad2-abff31046824))
  )

  (symbol (lib_id "current-source-v0,1-rescue:R_Small") (at 71.12 67.31 0) (mirror y) (unit 1)
    (in_bom yes) (on_board yes)
    (uuid 00000000-0000-0000-0000-00005a0f525a)
    (property "Reference" "R?" (id 0) (at 70.358 66.802 0)
      (effects (font (size 1.27 1.27)) (justify left))
    )
    (property "Value" "1000" (id 1) (at 70.358 68.326 0)
      (effects (font (size 1.27 1.27)) (justify left))
    )
    (property "Footprint" "" (id 2) (at 71.12 67.31 0))
    (property "Datasheet" "" (id 3) (at 71.12 67.31 0))
    (pin "1" (uuid 7a13f7ca-a7d5-46e4-82b0-2648fabcf49d))
    (pin "2" (uuid 8008bdce-2afa-40a2-8cd5-08fbac5b0e33))
  )

  (symbol (lib_id "current-source-v0,1-rescue:R_Small") (at 71.12 74.93 0) (mirror y) (unit 1)
    (in_bom yes) (on_board yes)
    (uuid 00000000-0000-0000-0000-00005a0f5254)
    (property "Reference" "R?" (id 0) (at 70.358 74.422 0)
      (effects (font (size 1.27 1.27)) (justify left))
    )
    (property "Value" "1000" (id 1) (at 70.358 75.946 0)
      (effects (font (size 1.27 1.27)) (justify left))
    )
    (property "Footprint" "" (id 2) (at 71.12 74.93 0))
    (property "Datasheet" "" (id 3) (at 71.12 74.93 0))
    (pin "1" (uuid 75dc9587-ff64-4da1-b7b4-be0f29dfaaa2))
    (pin "2" (uuid 13b07567-66c6-4452-90ae-100e509f2d26))
  )

  (symbol (lib_id "current-source-v0,1-rescue:R_Small") (at 78.74 67.31 0) (mirror y) (unit 1)
    (in_bom yes) (on_board yes)
    (uuid 00000000-0000-0000-0000-00005a0f5266)
    (property "Reference" "R?" (id 0) (at 77.978 66.802 0)
      (effects (font (size 1.27 1.27)) (justify left))
    )
    (property "Value" "1000" (id 1) (at 77.978 68.326 0)
      (effects (font (size 1.27 1.27)) (justify left))
    )
    (property "Footprint" "" (id 2) (at 78.74 67.31 0))
    (property "Datasheet" "" (id 3) (at 78.74 67.31 0))
    (pin "1" (uuid b4c89f9d-3f65-4f32-9777-604708233a89))
    (pin "2" (uuid 09d9dec5-f265-4fbf-8da3-c78ebcc48dc1))
  )

  (symbol (lib_id "current-source-v0,1-rescue:R_Small") (at 78.74 74.93 0) (mirror y) (unit 1)
    (in_bom yes) (on_board yes)
    (uuid 00000000-0000-0000-0000-00005a0f5260)
    (property "Reference" "R?" (id 0) (at 77.978 74.422 0)
      (effects (font (size 1.27 1.27)) (justify left))
    )
    (property "Value" "1000" (id 1) (at 77.978 75.946 0)
      (effects (font (size 1.27 1.27)) (justify left))
    )
    (property "Footprint" "" (id 2) (at 78.74 74.93 0))
    (property "Datasheet" "" (id 3) (at 78.74 74.93 0))
    (pin "1" (uuid 70df77e3-2a56-4936-92e1-4a1ff01bdc8d))
    (pin "2" (uuid da45ea85-2a48-44e5-ad59-373183d9c979))
  )

  (symbol (lib_id "current-source-v0,1-rescue:R_Small") (at 106.68 73.66 0) (mirror y) (unit 1)
    (in_bom yes) (on_board yes)
    (uuid 00000000-0000-0000-0000-00005a0f5ccf)
    (property "Reference" "R?" (id 0) (at 105.918 73.152 0)
      (effects (font (size 1.27 1.27)) (justify left))
    )
    (property "Value" "100" (id 1) (at 105.918 74.676 0)
      (effects (font (size 1.27 1.27)) (justify left))
    )
    (property "Footprint" "" (id 2) (at 106.68 73.66 0))
    (property "Datasheet" "" (id 3) (at 106.68 73.66 0))
    (pin "1" (uuid 260871ae-b1db-40fb-835d-beb079536251))
    (pin "2" (uuid 0b541d9e-1dd1-472f-bc5a-473e7189510b))
  )

  (symbol (lib_id "current-source-v0,1-rescue:POT") (at 93.98 86.36 90) (unit 1)
    (in_bom yes) (on_board yes)
    (uuid 00000000-0000-0000-0000-00005a0f4712)
    (property "Reference" "RV?" (id 0) (at 96.012 86.36 0))
    (property "Value" "POT" (id 1) (at 93.98 86.36 0))
    (property "Footprint" "" (id 2) (at 93.98 86.36 0))
    (property "Datasheet" "" (id 3) (at 93.98 86.36 0))
    (pin "1" (uuid b54d65f9-4e6e-4468-a960-ba036d2871a3))
    (pin "2" (uuid 17a6e380-9d95-4fc5-be08-e343f4ed323f))
    (pin "3" (uuid 19d03f66-7d0e-44f3-9c03-790a727937db))
  )

  (symbol (lib_id "current-source-v0,1-rescue:Q_NMOS_DGS") (at 104.14 59.69 0) (unit 1)
    (in_bom yes) (on_board yes)
    (uuid 00000000-0000-0000-0000-00005a0f442e)
    (property "Reference" "Q?" (id 0) (at 102.87 55.88 0)
      (effects (font (size 1.27 1.27)) (justify right))
    )
    (property "Value" "Q_NMOS_DGS" (id 1) (at 111.76 67.31 0)
      (effects (font (size 1.27 1.27)) (justify right))
    )
    (property "Footprint" "" (id 2) (at 109.22 57.15 0))
    (property "Datasheet" "" (id 3) (at 104.14 59.69 0))
    (pin "1" (uuid 63591bbc-d47e-4b7f-892a-356bb0b8cd59))
    (pin "2" (uuid 8f95bc89-7985-4580-beae-680977104384))
    (pin "3" (uuid 40607819-35d6-404e-a61c-28795bdf18cf))
  )

  (symbol (lib_id "current-source-v0,1-rescue:Switch_SPDT_x2") (at 78.74 55.88 90) (mirror x) (unit 1)
    (in_bom yes) (on_board yes)
    (uuid 00000000-0000-0000-0000-00005a0f5c1c)
    (property "Reference" "SW?" (id 0) (at 74.93 50.8 0))
    (property "Value" "Switch_SPDT_x2" (id 1) (at 68.58 55.88 90))
    (property "Footprint" "" (id 2) (at 78.74 55.88 0))
    (property "Datasheet" "" (id 3) (at 78.74 55.88 0))
    (pin "1" (uuid f5dff154-37d8-41a6-b5a3-ace2bd4a34bc))
    (pin "2" (uuid cb77dfe1-55ae-4dcd-9cee-cae1c51b29de))
    (pin "3" (uuid 815e4d2c-dfe2-4f70-abea-040859c118f1))
  )

  (symbol (lib_id "current-source-v0,1-rescue:TL071") (at 91.44 59.69 0) (unit 1)
    (in_bom yes) (on_board yes)
    (uuid 00000000-0000-0000-0000-00005a0f43d7)
    (property "Reference" "U?" (id 0) (at 91.44 53.34 0)
      (effects (font (size 1.27 1.27)) (justify left))
    )
    (property "Value" "TL071" (id 1) (at 91.44 55.88 0)
      (effects (font (size 1.27 1.27)) (justify left))
    )
    (property "Footprint" "" (id 2) (at 92.71 54.61 0))
    (property "Datasheet" "" (id 3) (at 91.44 53.34 0))
    (pin "2" (uuid 91b93d1e-89b1-440b-951a-7950f17f14af))
    (pin "3" (uuid 997b4424-66a6-4af6-b660-311ee50456fd))
    (pin "4" (uuid bd901ee0-1f5b-4966-bbf9-68b6a50718a6))
    (pin "6" (uuid b74741d8-571b-45ff-99de-537dac659c6f))
    (pin "7" (uuid 8a7a8c14-91dd-4108-a31c-03315ec3bfb1))
  )

  (symbol (lib_id "current-source-v0,1-rescue:MAX874") (at 68.58 83.82 0) (mirror y) (unit 1)
    (in_bom yes) (on_board yes)
    (uuid 00000000-0000-0000-0000-00005a0f4076)
    (property "Reference" "U?" (id 0) (at 80.01 88.9 0))
    (property "Value" "MAX874" (id 1) (at 62.23 90.17 0)
      (effects (font (size 1.27 1.27)) (justify left))
    )
    (property "Footprint" "" (id 2) (at 68.58 83.82 0))
    (property "Datasheet" "" (id 3) (at 68.58 83.82 0))
    (pin "2" (uuid f65c3fbf-a27e-4b33-ad96-d13ca1eeefd8))
    (pin "3" (uuid 6f6d02bd-4448-4525-9f54-4d3249b10813))
    (pin "4" (uuid 79920207-35b6-4e7b-b665-cd6eb4f92bfe))
    (pin "5" (uuid e094a08b-f3d2-4872-ad58-77a296ea8cef))
    (pin "6" (uuid 30b3840a-a9d3-47d8-b79e-d9c5f72c8072))
  )

  (sheet_instances
    (path "/" (page "1"))
  )

  (symbol_instances
    (path "/00000000-0000-0000-0000-00005a0f442e"
      (reference "Q?") (unit 1) (value "Q_NMOS_DGS") (footprint "")
    )
    (path "/00000000-0000-0000-0000-00005a0f46b2"
      (reference "R?") (unit 1) (value "1000") (footprint "")
    )
    (path "/00000000-0000-0000-0000-00005a0f505d"
      (reference "R?") (unit 1) (value "1000") (footprint "")
    )
    (path "/00000000-0000-0000-0000-00005a0f5097"
      (reference "R?") (unit 1) (value "1000") (footprint "")
    )
    (path "/00000000-0000-0000-0000-00005a0f5107"
      (reference "R?") (unit 1) (value "1000") (footprint "")
    )
    (path "/00000000-0000-0000-0000-00005a0f510d"
      (reference "R?") (unit 1) (value "1000") (footprint "")
    )
    (path "/00000000-0000-0000-0000-00005a0f5113"
      (reference "R?") (unit 1) (value "1000") (footprint "")
    )
    (path "/00000000-0000-0000-0000-00005a0f5184"
      (reference "R?") (unit 1) (value "1000") (footprint "")
    )
    (path "/00000000-0000-0000-0000-00005a0f518a"
      (reference "R?") (unit 1) (value "1000") (footprint "")
    )
    (path "/00000000-0000-0000-0000-00005a0f5190"
      (reference "R?") (unit 1) (value "1000") (footprint "")
    )
    (path "/00000000-0000-0000-0000-00005a0f5254"
      (reference "R?") (unit 1) (value "1000") (footprint "")
    )
    (path "/00000000-0000-0000-0000-00005a0f525a"
      (reference "R?") (unit 1) (value "1000") (footprint "")
    )
    (path "/00000000-0000-0000-0000-00005a0f5260"
      (reference "R?") (unit 1) (value "1000") (footprint "")
    )
    (path "/00000000-0000-0000-0000-00005a0f5266"
      (reference "R?") (unit 1) (value "1000") (footprint "")
    )
    (path "/00000000-0000-0000-0000-00005a0f5ccf"
      (reference "R?") (unit 1) (value "100") (footprint "")
    )
    (path "/00000000-0000-0000-0000-00005a0f4712"
      (reference "RV?") (unit 1) (value "POT") (footprint "")
    )
    (path "/00000000-0000-0000-0000-00005a0f5c1c"
      (reference "SW?") (unit 1) (value "Switch_SPDT_x2") (footprint "")
    )
    (path "/00000000-0000-0000-0000-00005a0f4076"
      (reference "U?") (unit 1) (value "MAX874") (footprint "")
    )
    (path "/00000000-0000-0000-0000-00005a0f43d7"
      (reference "U?") (unit 1) (value "TL071") (footprint "")
    )
    (path "/00000000-0000-0000-0000-00005a0f418b"
      (reference "W?") (unit 1) (value "I-") (footprint "")
    )
    (path "/00000000-0000-0000-0000-00005a0f41bf"
      (reference "W?") (unit 1) (value "V+") (footprint "")
    )
    (path "/00000000-0000-0000-0000-00005a0f425a"
      (reference "W?") (unit 1) (value "I+") (footprint "")
    )
    (path "/00000000-0000-0000-0000-00005a0f4292"
      (reference "W?") (unit 1) (value "GND") (footprint "")
    )
  )
)
