EESchema Schematic File Version 2
LIBS:power
LIBS:device
LIBS:transistors
LIBS:conn
LIBS:linear
LIBS:regul
LIBS:74xx
LIBS:cmos4000
LIBS:adc-dac
LIBS:memory
LIBS:xilinx
LIBS:microcontrollers
LIBS:dsp
LIBS:microchip
LIBS:analog_switches
LIBS:motorola
LIBS:texas
LIBS:intel
LIBS:audio
LIBS:interface
LIBS:digital-audio
LIBS:philips
LIBS:display
LIBS:cypress
LIBS:siliconi
LIBS:opto
LIBS:atmel
LIBS:contrib
LIBS:valves
EELAYER 25 0
EELAYER END
$Descr A4 11693 8268
encoding utf-8
Sheet 1 1
Title ""
Date ""
Rev ""
Comp ""
Comment1 ""
Comment2 ""
Comment3 ""
Comment4 ""
$EndDescr
$Comp
L MAX874 U?
U 1 1 5A0F4076
P 2700 3300
F 0 "U?" H 2250 3100 50  0000 C CNN
F 1 "MAX874" H 2950 3050 50  0000 L CNN
F 2 "" H 2700 3300 50  0000 C CNN
F 3 "" H 2700 3300 50  0000 C CNN
	1    2700 3300
	-1   0    0    -1  
$EndComp
$Comp
L TEST_1P W?
U 1 1 5A0F418B
P 4250 2750
F 0 "W?" H 4250 3020 50  0000 C CNN
F 1 "I-" H 4250 2950 50  0000 C CNN
F 2 "" H 4450 2750 50  0000 C CNN
F 3 "" H 4450 2750 50  0000 C CNN
	1    4250 2750
	0    1    1    0   
$EndComp
$Comp
L TEST_1P W?
U 1 1 5A0F41BF
P 4250 2150
F 0 "W?" H 4250 2420 50  0000 C CNN
F 1 "V+" H 4250 2350 50  0000 C CNN
F 2 "" H 4450 2150 50  0000 C CNN
F 3 "" H 4450 2150 50  0000 C CNN
	1    4250 2150
	0    1    1    0   
$EndComp
$Comp
L TEST_1P W?
U 1 1 5A0F425A
P 4250 2550
F 0 "W?" H 4250 2820 50  0000 C CNN
F 1 "I+" H 4250 2750 50  0000 C CNN
F 2 "" H 4450 2550 50  0000 C CNN
F 3 "" H 4450 2550 50  0000 C CNN
	1    4250 2550
	0    1    1    0   
$EndComp
$Comp
L TEST_1P W?
U 1 1 5A0F4292
P 4250 3050
F 0 "W?" H 4250 3320 50  0000 C CNN
F 1 "GND" H 4250 3250 50  0000 C CNN
F 2 "" H 4450 3050 50  0000 C CNN
F 3 "" H 4450 3050 50  0000 C CNN
	1    4250 3050
	0    1    1    0   
$EndComp
$Comp
L TL071 U?
U 1 1 5A0F43D7
P 3600 2350
F 0 "U?" H 3600 2600 50  0000 L CNN
F 1 "TL071" H 3600 2500 50  0000 L CNN
F 2 "" H 3650 2550 50  0000 C CNN
F 3 "" H 3600 2600 50  0000 C CNN
	1    3600 2350
	1    0    0    -1  
$EndComp
$Comp
L R_Small R?
U 1 1 5A0F46B2
P 1900 2950
F 0 "R?" H 1930 2970 50  0000 L CNN
F 1 "1000" H 1930 2910 50  0000 L CNN
F 2 "" H 1900 2950 50  0000 C CNN
F 3 "" H 1900 2950 50  0000 C CNN
	1    1900 2950
	-1   0    0    -1  
$EndComp
$Comp
L POT RV?
U 1 1 5A0F4712
P 3700 3400
F 0 "RV?" H 3700 3320 50  0000 C CNN
F 1 "POT" H 3700 3400 50  0000 C CNN
F 2 "" H 3700 3400 50  0000 C CNN
F 3 "" H 3700 3400 50  0000 C CNN
	1    3700 3400
	0    -1   -1   0   
$EndComp
$Comp
L Q_NMOS_DGS Q?
U 1 1 5A0F442E
P 4100 2350
F 0 "Q?" H 4050 2500 50  0000 R CNN
F 1 "Q_NMOS_DGS" H 4400 2050 50  0000 R CNN
F 2 "" H 4300 2450 50  0000 C CNN
F 3 "" H 4100 2350 50  0000 C CNN
	1    4100 2350
	1    0    0    -1  
$EndComp
$Comp
L R_Small R?
U 1 1 5A0F505D
P 1900 2700
F 0 "R?" H 1930 2720 50  0000 L CNN
F 1 "1000" H 1930 2660 50  0000 L CNN
F 2 "" H 1900 2700 50  0000 C CNN
F 3 "" H 1900 2700 50  0000 C CNN
	1    1900 2700
	-1   0    0    -1  
$EndComp
$Comp
L R_Small R?
U 1 1 5A0F5097
P 1900 2450
F 0 "R?" H 1930 2470 50  0000 L CNN
F 1 "1000" H 1930 2410 50  0000 L CNN
F 2 "" H 1900 2450 50  0000 C CNN
F 3 "" H 1900 2450 50  0000 C CNN
	1    1900 2450
	-1   0    0    -1  
$EndComp
$Comp
L R_Small R?
U 1 1 5A0F5107
P 2200 2950
F 0 "R?" H 2230 2970 50  0000 L CNN
F 1 "1000" H 2230 2910 50  0000 L CNN
F 2 "" H 2200 2950 50  0000 C CNN
F 3 "" H 2200 2950 50  0000 C CNN
	1    2200 2950
	-1   0    0    -1  
$EndComp
$Comp
L R_Small R?
U 1 1 5A0F510D
P 2200 2700
F 0 "R?" H 2230 2720 50  0000 L CNN
F 1 "1000" H 2230 2660 50  0000 L CNN
F 2 "" H 2200 2700 50  0000 C CNN
F 3 "" H 2200 2700 50  0000 C CNN
	1    2200 2700
	-1   0    0    -1  
$EndComp
$Comp
L R_Small R?
U 1 1 5A0F5113
P 2200 2450
F 0 "R?" H 2230 2470 50  0000 L CNN
F 1 "1000" H 2230 2410 50  0000 L CNN
F 2 "" H 2200 2450 50  0000 C CNN
F 3 "" H 2200 2450 50  0000 C CNN
	1    2200 2450
	-1   0    0    -1  
$EndComp
$Comp
L R_Small R?
U 1 1 5A0F5184
P 2500 2950
F 0 "R?" H 2530 2970 50  0000 L CNN
F 1 "1000" H 2530 2910 50  0000 L CNN
F 2 "" H 2500 2950 50  0000 C CNN
F 3 "" H 2500 2950 50  0000 C CNN
	1    2500 2950
	-1   0    0    -1  
$EndComp
$Comp
L R_Small R?
U 1 1 5A0F518A
P 2500 2700
F 0 "R?" H 2530 2720 50  0000 L CNN
F 1 "1000" H 2530 2660 50  0000 L CNN
F 2 "" H 2500 2700 50  0000 C CNN
F 3 "" H 2500 2700 50  0000 C CNN
	1    2500 2700
	-1   0    0    -1  
$EndComp
$Comp
L R_Small R?
U 1 1 5A0F5190
P 2500 2450
F 0 "R?" H 2530 2470 50  0000 L CNN
F 1 "1000" H 2530 2410 50  0000 L CNN
F 2 "" H 2500 2450 50  0000 C CNN
F 3 "" H 2500 2450 50  0000 C CNN
	1    2500 2450
	-1   0    0    -1  
$EndComp
$Comp
L R_Small R?
U 1 1 5A0F5254
P 2800 2950
F 0 "R?" H 2830 2970 50  0000 L CNN
F 1 "1000" H 2830 2910 50  0000 L CNN
F 2 "" H 2800 2950 50  0000 C CNN
F 3 "" H 2800 2950 50  0000 C CNN
	1    2800 2950
	-1   0    0    -1  
$EndComp
$Comp
L R_Small R?
U 1 1 5A0F525A
P 2800 2650
F 0 "R?" H 2830 2670 50  0000 L CNN
F 1 "1000" H 2830 2610 50  0000 L CNN
F 2 "" H 2800 2650 50  0000 C CNN
F 3 "" H 2800 2650 50  0000 C CNN
	1    2800 2650
	-1   0    0    -1  
$EndComp
$Comp
L R_Small R?
U 1 1 5A0F5260
P 3100 2950
F 0 "R?" H 3130 2970 50  0000 L CNN
F 1 "1000" H 3130 2910 50  0000 L CNN
F 2 "" H 3100 2950 50  0000 C CNN
F 3 "" H 3100 2950 50  0000 C CNN
	1    3100 2950
	-1   0    0    -1  
$EndComp
$Comp
L R_Small R?
U 1 1 5A0F5266
P 3100 2650
F 0 "R?" H 3130 2670 50  0000 L CNN
F 1 "1000" H 3130 2610 50  0000 L CNN
F 2 "" H 3100 2650 50  0000 C CNN
F 3 "" H 3100 2650 50  0000 C CNN
	1    3100 2650
	-1   0    0    -1  
$EndComp
$Comp
L R_Small R?
U 1 1 5A0F5CCF
P 4200 2900
F 0 "R?" H 4230 2920 50  0000 L CNN
F 1 "100" H 4230 2860 50  0000 L CNN
F 2 "" H 4200 2900 50  0000 C CNN
F 3 "" H 4200 2900 50  0000 C CNN
	1    4200 2900
	-1   0    0    -1  
$EndComp
Wire Wire Line
	3500 3600 2700 3600
Wire Wire Line
	2800 3050 3100 3050
Wire Wire Line
	3100 3050 3500 3050
Wire Wire Line
	3500 3050 4200 3050
Wire Wire Line
	4200 3050 4250 3050
Wire Wire Line
	3500 2650 3500 3050
Wire Wire Line
	3500 3050 3500 3250
Wire Wire Line
	3500 3250 3500 3600
Wire Wire Line
	4200 2050 4200 2150
Wire Wire Line
	3500 2050 3900 2050
Wire Wire Line
	3900 2050 4200 2050
Wire Wire Line
	3350 3200 3900 3200
Wire Wire Line
	3900 2350 3900 2350
Wire Wire Line
	4200 2150 4250 2150
Wire Wire Line
	4200 2550 4250 2550
Wire Wire Line
	1900 2850 1900 2800
Wire Wire Line
	1900 2600 1900 2550
Wire Wire Line
	1900 2350 2200 2350
Wire Wire Line
	2200 2550 2200 2600
Wire Wire Line
	2200 2800 2200 2850
Wire Wire Line
	2200 3050 2500 3050
Wire Wire Line
	2500 2850 2500 2800
Wire Wire Line
	2500 2600 2500 2550
Wire Wire Line
	3100 2750 3100 2800
Wire Wire Line
	3100 2800 3100 2850
Wire Wire Line
	2800 2750 2800 2800
Wire Wire Line
	2800 2800 2800 2850
Wire Wire Line
	2800 2800 3100 2800
Wire Wire Line
	3100 2800 3200 2800
Connection ~ 2800 2800
Connection ~ 3100 2800
Wire Wire Line
	3300 2450 3300 2750
Wire Wire Line
	3300 2750 4200 2750
Wire Wire Line
	4200 2750 4250 2750
Wire Wire Line
	4200 2750 4200 2800
Connection ~ 3500 3050
Connection ~ 4200 2750
Wire Wire Line
	4200 3000 4200 3050
Connection ~ 4200 3050
Wire Wire Line
	2800 2550 3000 2550
Wire Wire Line
	3000 2550 3100 2550
Wire Wire Line
	3200 2800 3200 2500
Wire Wire Line
	3000 2500 3000 2550
Connection ~ 3000 2550
Wire Wire Line
	2500 2350 2800 2350
Wire Wire Line
	2800 2350 2800 2550
Connection ~ 2800 2550
Wire Wire Line
	1900 3050 1900 3200
Wire Wire Line
	1900 3200 1900 3650
Wire Wire Line
	1900 3200 2050 3200
Connection ~ 1900 3200
Connection ~ 3100 3050
$Comp
L Switch_SPDT_x2 SW?
U 1 1 5A0F5C1C
P 3100 2200
F 0 "SW?" H 2900 2350 50  0000 C CNN
F 1 "Switch_SPDT_x2" V 3100 2600 50  0000 C CNN
F 2 "" H 3100 2200 50  0000 C CNN
F 3 "" H 3100 2200 50  0000 C CNN
	1    3100 2200
	0    -1   1    0   
$EndComp
Wire Wire Line
	3100 1900 3300 1900
Wire Wire Line
	3300 1900 3300 2250
Wire Wire Line
	3900 3200 3900 2050
Connection ~ 3900 2050
Connection ~ 4200 2150
Wire Wire Line
	3550 3400 3350 3400
Wire Wire Line
	3700 3250 3500 3250
Connection ~ 3500 3250
Wire Wire Line
	3700 3550 3700 3650
Wire Wire Line
	3700 3650 1900 3650
$EndSCHEMATC
